<?xml version="1.0" encoding="iso-8859-1"?>
<!-- Generator: Adobe Illustrator 22.0.1, SVG Export Plug-In . SVG Version: 6.00 Build 0)  -->
<svg version="1.1" id="Layer_1" xmlns="http://www.w3.org/2000/svg" xmlns:xlink="http://www.w3.org/1999/xlink" x="0px" y="0px"
	 viewBox="-664 237 1434.503 647.051" style="enable-background:new -664 237 1434.503 647.051;" xml:space="preserve">
<g>
	<g>
		<path style="fill:#171B30;" d="M-123.011,878.848h-444.078v0c0-30.36,24.612-54.972,54.972-54.972h334.133
			C-147.623,823.876-123.011,848.488-123.011,878.848L-123.011,878.848z"/>
		<path style="fill:#161323;" d="M-117.808,884.051h-454.484v-5.203c0-33.181,26.995-60.176,60.176-60.176h334.133
			c33.181,0,60.176,26.994,60.176,60.176V884.051z M-561.615,873.645h433.131c-2.61-25.007-23.814-44.566-49.499-44.566h-334.133
			C-537.802,829.079-559.005,848.638-561.615,873.645z"/>
	</g>
	<path style="fill:#161323;" d="M-50.188,467.43c-0.028,0-0.057,0-0.085,0h0c-4.432,0-8.024,3.23-8.024,7.214v-58.643
		c0,3.984,3.593,7.214,8.024,7.214h0c0.134,0,0.265-0.003,0.41-0.011c3.726-0.211,6.589-3.415,6.442-7.144
		c-1.969-49.945-41.741-91.59-91.943-95.812c-1.751-0.147-4.459,0.68-3.83-2.88c0.435-2.461-0.189-5.465,4.079-5.029
		c3.225,0.33,6.512,0.081,9.772,0.052c7.125-0.064,9.465-2.473,9.325-9.553c-0.679-34.148-29.808-63.075-64.377-63.169
		c-77.451-0.209-154.902-0.08-232.354-0.066c-5.633,0.001-7.623,1.715-8.973,7.327c-0.567,4.27,1.191,6.99,5.345,8.246
		c2.272,0.687,4.615,0.497,6.936,0.497c74.473,0.008,148.946,0.007,223.419,0.002c2.638,0,5.277,0.001,7.91,0.13
		c19.868,0.975,38.433,15.706,43.911,34.819c1.593,5.557,1.181,6.132-4.628,6.132c-139.947,0.007-279.894,0.006-419.841,0
		c-6.066,0-6.486-0.598-4.731-6.424c5.899-19.579,24.585-34.127,45.066-34.512c23.422-0.44,46.854-0.083,70.281-0.147
		c2.167-0.006,4.352,0.148,6.475-0.472c4.13-1.207,5.921-3.87,5.531-8.206c-1.312-5.778-3.281-7.375-9.349-7.38
		c-23.275-0.019-46.549,0.005-69.824-0.019c-5.299-0.006-10.525,0.583-15.688,1.711c-28.66,6.264-50.632,33.209-50.768,62.221
		c-0.029,6.204,2.434,8.756,8.626,8.855c3.258,0.052,6.557,0.34,9.765-0.059c4.219-0.525,4.797,1.635,5.042,5.057
		c0.29,4.042-2.642,2.522-4.378,2.865c-2.578,0.511-5.227,0.649-7.83,1.05c-42.437,6.541-78.631,43.284-82.805,85.855
		c-2.571,26.225-3.368,52.838,0.84,78.921c7.526,46.661,26.909,83.768,57.583,111.46c3.017,2.724,7.794,2.25,10.133-1.074
		c0.018-0.025,0.035-0.05,0.053-0.076v0c2.636-3.822,2.115-8.754-1.165-11.016l28.906,19.938c-3.28-2.262-8.075-0.998-10.712,2.824
		l0,0c-0.021,0.031-0.043,0.062-0.064,0.093c-2.521,3.744-1.271,8.854,2.605,11.167c11.754,7.012,24.615,13.091,38.573,18.236
		c23.286,8.584,47.76,10.355,72.419,9.518c4.018-0.136,7.41,0.775,10.887,2.907c14.329,8.785,29.671,15.36,45.956,19.544
		c3.685,0.946,3.927,2.263,2.868,5.594c-8.203,25.817-16.254,51.684-24.178,77.588c-0.861,2.816-2.16,3.889-4.987,4.304
		c-31.676,4.654-54.67,30.104-56.314,62.167c-0.352,6.863,2.336,9.75,9.167,9.756c18.154,0.015,36.309-0.1,54.462,0.072
		c5.175,0.049,8.273-1.909,9.365-6.963c0.133-5.605-1.168-7.071-8.008-9.011c-7.827-0.578-15.67-0.252-23.505-0.394
		c-7.975-0.146-15.962,0.499-23.952-0.326c-0.799-0.974-0.445-2.033-0.205-3.08c4.814-20.978,25.031-36.973,46.497-36.808
		c44.826,0.018,89.665,0.005,134.517-0.008c18.96-0.107,37.761,12.819,44.248,30.529c1.089,2.973,2.671,6,1.175,9.361
		c-1.476,0.572-3.043,0.326-4.583,0.326c-40.82,0.004-81.641-0.006-122.461,0.019c-6.982,0.004-13.967-0.229-20.948,0.189
		c-1.499,0.289-3.051,0.586-4.339,1.328c-2.799,1.609-5.565,3.4-4.264,7.431c1.477,5.84,3.219,7.331,8.903,7.332
		c52.462,0.015,104.924,0.018,157.386-0.002c5.996-0.002,8.708-2.903,8.603-8.956c-0.539-31.132-24.913-58.789-55.586-62.863
		c-3.347-0.445-4.835-1.649-5.961-4.997c-8.686-25.818-14.094-52.625-23.693-78.149c-1.253-3.332,0.616-3.524,2.776-4.071
		c14.337-3.633,28.173-8.796,40.726-16.519c8.059-4.958,16.122-6.614,25.387-6.379c32.727,0.827,63.88-6.144,92.433-22.225
		c57.316-32.281,90.202-81.224,97.53-146.811c0.127-1.135,0.242-2.271,0.346-3.407C-43.494,470.839-46.39,467.465-50.188,467.43z
		 M-550.955,558c-27.246-23.733-42.583-53.576-44.867-89.749c-0.997-15.785-1.265-31.659,0.081-47.42
		c1.88-22.029,19.541-39.623,41.479-42.555c3.38-0.452,4.496,0.454,4.943,3.823c4.648,35.021,9.312,70.042,14.259,105.022
		c3.312,23.413,4.709,47.214,13.728,69.536c3.309,8.191,6.875,16.238,11.512,24.949C-525.609,576.046-539.079,568.345-550.955,558z
		 M-104.896,489.531c-10.763,43.318-37.526,72.989-78.49,90.302c10.137-18.898,17.934-38.611,21.203-59.744
		c2.699-17.447,4.147-35.089,6.122-52.647c3.205-28.497,6.414-56.994,9.538-85.5c0.34-3.1,1.236-4.066,4.629-3.425
		c22.456,4.245,38.874,21.065,40.006,43.855C-100.777,444.768-99.403,467.423-104.896,489.531z"/>
	<linearGradient id="SVGID_1_" gradientUnits="userSpaceOnUse" x1="-566.3997" y1="272.47" x2="-131.2166" y2="272.47">
		<stop  offset="0" style="stop-color:#FFFFFF"/>
		<stop  offset="1" style="stop-color:#E2E7EA"/>
	</linearGradient>
	<path style="fill:url(#SVGID_1_);" d="M-421.724,246.931c1.565,5.899,3.425,7.283,9.965,7.283
		c76.334,0.009,152.668-0.021,229.002,0.03c24.446,0.016,44.163,14.809,50.473,37.626c0.33,1.193,0.456,2.446,0.837,3.619
		c0.591,1.822,0.071,2.639-1.885,2.505c-0.927-0.063-1.861-0.018-2.792-0.018c-141.808,0-283.615,0-425.423-0.001
		c-5.439,0-5.439-0.002-4.143-5.205c5.525-22.182,25.549-38.273,48.416-38.472c23.891-0.208,47.786-0.057,71.679-0.081
		c6.148-0.006,7.965-1.414,9.545-7.221C-431.274,246.975-426.499,246.953-421.724,246.931z"/>
	<linearGradient id="SVGID_2_" gradientUnits="userSpaceOnUse" x1="-464.4234" y1="796.666" x2="-234.0875" y2="796.666">
		<stop  offset="0" style="stop-color:#FFFFFF"/>
		<stop  offset="1" style="stop-color:#FFFFFF"/>
	</linearGradient>
	<path style="fill:url(#SVGID_2_);" d="M-279.93,771.21c19.707-0.168,42.094,17.831,45.605,36.735
		c0.306,1.646,0.168,3.375,0.237,5.066c-0.327,0.361-0.726,0.482-1.2,0.364c-1.867-0.592-3.726-0.104-5.6,0.031
		c-0.523-0.156-1.044-0.249-1.588-0.284c-46.095-0.056-92.177-0.047-138.242-0.005c-1.321,0.186-2.645,0.458-4.006,0.488
		c-0.612,0.013-0.928,0.344-0.331,0.177c0.022-0.006,0.119,0.256,0.182,0.394c-4.215,0.819-7.129,2.995-7.817,7.494
		c-0.303-0.008-0.59-0.081-0.86-0.22c-4.032-0.866-8.063-0.652-12.095-0.001c-0.406,0.228-0.812,0.456-1.216,0.675
		c-0.587-4.461-3.116-7.074-7.501-7.929c0.259-0.981,0.259-0.981-1.573-1.08c-13.22-0.019-26.419-0.079-39.608,0.023
		c-0.484,0.059-0.969,0.162-1.436,0.308c-1.811-0.251-3.628-0.641-5.451-0.038c-0.663,0.164-1.315,0.252-1.857-0.312
		c-0.616-3.09,1.027-5.704,1.957-8.403c6.574-19.081,26.062-33.649,44.577-33.484c1.294,0.778,2.724,0.437,4.091,0.438
		c43.215,0.019,86.429,0.019,129.644,0C-282.654,771.647-281.224,771.988-279.93,771.21z"/>
	<path style="fill:#FFFFFF;" d="M-405.646,821.449c3.337-2.285,7.581,0.486,10.891-1.952c0.401,0.651,0.803,1.302,1.204,1.954
		C-397.582,821.45-401.614,821.449-405.646,821.449z"/>
	<linearGradient id="SVGID_3_" gradientUnits="userSpaceOnUse" x1="-521.839" y1="534.6637" x2="-153.8419" y2="534.6637">
		<stop  offset="0" style="stop-color:#FFFFFF"/>
		<stop  offset="1" style="stop-color:#E2E7EA"/>
	</linearGradient>
	<path style="fill:url(#SVGID_3_);" d="M-153.842,327.989c-1.639,15.415-3.211,30.837-4.93,46.242
		c-3.251,29.129-6.425,58.268-9.938,87.366c-2.637,21.848-2.763,44.174-8.474,65.447c-18.693,69.625-63.499,113.237-133.499,130.746
		c-8.743,2.187-10.448,4.759-7.721,13.507c2.121,6.802,4.297,13.588,6.348,20.411c1.143,3.803,3.305,6.259,7.481,6.46
		c0.305,0.015,0.743-0.211,0.903-0.074c3.78,3.234,3.188,8.306,5.126,12.328c0.62,1.286,0.855,2.448-0.807,3.529
		c-3.694,2.403-3.978,5.812-2.673,9.821c3.021,9.28,5.817,18.633,8.699,27.959c0.447,1.445,1.254,2.822,0.903,4.503
		c-29.793,0-59.567,0-89.34,0c-1.764-2.276-0.276-4.472,0.303-6.592c8.296-30.374,16.497-60.773,24.749-91.159
		c1.761-6.485,1.665-6.47-4.687-7.948c-29.853-6.949-57.589-18.552-81.366-38.272c-28.668-23.777-45.837-54.251-51.179-91.145
		c-5.133-35.449-9.798-70.965-14.672-106.451c-4.367-31.796-8.599-63.61-13.001-95.401c-0.257-1.854-0.526-3.709,0.654-5.393
		c1.705-1.149,3.558-0.754,5.4-0.524c0.519,0.2,0.973,0.496,1.379,0.878c0.409,0.395,0.863,0.719,1.383,0.955
		c2.308,0.567,4.647,0.314,6.965,0.315c112.502,0.013,225.005,0.012,337.507,0.012c1.241,0,2.483-0.003,3.724,0.002
		c8.747,0.032,10.856,2.287,10.41,11.151C-154.22,327.162-153.998,327.558-153.842,327.989z"/>
	<path style="fill:#FFFFFF;" d="M-610.451,417.469c0.177,0.274,0.147,0.523-0.089,0.747c-1.468,3.36-1.359,6.952-1.387,10.483
		c-0.082,10.328-0.027,20.656-0.016,30.985c0.016-10.755-0.004-21.511,0.046-32.266c0.004-0.927-0.613-2.283,1.047-2.622
		c0.053,11.787,0.068,23.574,0.166,35.36c0.552,65.892,44.811,122.371,108.674,138.708c1.351,0.345,2.707,0.666,4.061,0.999
		c3.263,1.565,4.676,4.823,6.767,7.447c6.196,7.772,13.786,14.19,20.596,21.363c1.02,1.075,3.065,1.981,2.381,3.619
		c-0.715,1.711-2.654,0.874-4.176,0.654c-2.884-0.416-5.852,0.439-8.711-0.523c-15.547-1.927-31.017-4.367-45.632-10.255
		c-64.058-25.809-101.631-72.699-111.918-141.177c-0.576-3.833-1.094-7.669-0.742-11.561c0.621-0.926,0.555-2.04,0.837-3.062
		c0.105-16.538,0.105-33.074-0.001-49.607c-0.122-0.816-0.356-1.593-0.844-2.275c1.246-23.151,11.114-42.213,27.95-57.732
		c14.362-13.237,31.57-20.296,50.966-22.243c3.315-0.333,4.923,0.159,5.22,4.084c0.537,7.081,1.612,14.144,2.894,21.135
		c0.576,3.137-0.226,4.052-3.227,4.338c-7.282,0.694-14.261,2.558-20.623,6.337c-4.952,4.25-10.512,7.657-15.826,11.405l0.019-0.022
		c-3.32,3.537-5.239,8.201-9.103,11.299c-4.562,6.121-6.488,13.35-8.619,20.493C-610.484,414.782-610.567,416.107-610.451,417.469z"
		/>
	<path style="fill:#FFFFFF;" d="M-58.147,460.126c0.673,24.791-4.212,48.598-14.976,70.774
		c-30.628,63.097-81.188,97.037-151.322,101.522c-0.768,0.049-1.542,0.006-2.25,0.006c-0.536-0.823,0.064-1.18,0.49-1.549
		c10.243-8.859,19.607-18.554,27.782-29.362c1.216-1.608,2.717-2.228,4.588-2.785c54.463-16.203,89.185-51.608,103.383-106.774
		c2.48-9.635,3.502-19.52,3.477-29.495c-0.031-12.416,0.044-24.832-0.016-37.247c-0.15-30.65-22.98-56.824-53.328-61.062
		c-2.753-0.384-4.161-0.95-3.688-4.221c1.087-7.517,1.876-15.08,2.632-22.64c0.214-2.142,0.892-2.941,3.151-2.753
		c44.411,3.707,76.621,38.64,80.006,78.571c0.065,0.763-0.046,1.542-0.075,2.313c-1.089,2.523,0.039,5.243-0.69,7.8
		c-0.396,11.854-0.292,23.705-0.056,35.556C-58.853,459.303-58.555,459.751-58.147,460.126z"/>
	<path style="fill:#FEFEFE;" d="M-522.045,313.898c1.701,13.055,3.351,26.117,5.113,39.164c3.836,28.41,7.684,56.817,11.609,85.215
		c4.221,30.541,7.135,61.348,13.124,91.541c9.879,49.804,40.993,83.297,86.208,104.583c15.084,7.101,30.871,12.13,47.155,15.517
		c3.698,0.769,3.903,2.059,3.025,5.254c-9.069,33.017-17.999,66.072-26.961,99.119c-0.161,0.593-0.236,1.209-0.35,1.814
		c-6.961,0-13.922,0-21.273,0c4.408-14.21,8.752-28.236,13.112-42.257c4.549-14.631,9.135-29.251,13.66-43.89
		c2.33-7.539,0.428-10.361-7.234-12.287c-70.011-17.6-113.95-61.376-129.942-131.826c-4.787-21.087-6.214-42.939-9.15-64.445
		c-5.097-37.329-10.172-74.66-15.254-111.991c-1.548-11.368-3.005-22.75-4.7-34.096c-0.347-2.325,0.062-3.073,2.414-3.005
		c6.351,0.186,12.705,0.231,19.058,0.332C-522.109,312.999-521.649,313.317-522.045,313.898z"/>
	<linearGradient id="SVGID_4_" gradientUnits="userSpaceOnUse" x1="-522.4349" y1="315.9161" x2="-153.4263" y2="315.9161">
		<stop  offset="0" style="stop-color:#FFFFFF"/>
		<stop  offset="1" style="stop-color:#FFFFFF"/>
	</linearGradient>
	<path style="fill:url(#SVGID_4_);" d="M-522.045,313.898c-0.131-0.42-0.262-0.84-0.39-1.259c1.541-0.092,3.079-0.267,4.617-0.267
		c119.985-0.014,239.97-0.014,359.956-0.015c5.05,0,5.05,0,3.602,7.119c-3.28-5.068-8.365-4.285-13.333-4.283
		c-113.449,0.037-226.898,0.034-340.347-0.005c-2.874-0.001-5.944,0.774-8.542-1.284
		C-518.337,313.902-520.191,313.9-522.045,313.898z"/>
	<linearGradient id="SVGID_5_" gradientUnits="userSpaceOnUse" x1="-516.4826" y1="319.9965" x2="-154.2091" y2="319.9965">
		<stop  offset="0" style="stop-color:#FFFFFF"/>
		<stop  offset="1" style="stop-color:#FFFFFF"/>
	</linearGradient>
	<path style="fill:url(#SVGID_5_);" d="M-516.483,313.904c117.922-0.001,235.843,0.02,353.765-0.083
		c4.464-0.004,8.15-0.015,8.457,5.655c0.111,2.276,0.119,4.54-0.788,6.696c-0.859-2.255-1.075-4.684-1.956-6.948
		c-0.646-1.661-1.357-3.058-3.297-3.378c-2.334-0.154-4.661-0.08-6.987-0.08c-113.984-0.004-227.969,0.001-341.953-0.034
		c-2.423-0.001-4.987,0.661-7.241-0.896C-516.483,314.525-516.483,314.214-516.483,313.904z"/>
	<path style="fill:#161323;" d="M-481.089,632.421c4,0,8.001,0,12.87,0c-11.178-10.263-21.613-20.382-29.728-32.56
		c3.416,0.062,4.847,2.959,7.196,5.018c1.67,1.465,1.319,7.537,6.662,4.544c1.427-0.799,3.352,1.652,4.485,3.495
		c-1.873,1.373-2.347-1.622-4.089-1.019c0.758,1.97,2.245,3.75,3.908,4.224c5.527,1.574,7.307,6.873,10.992,10.232
		c0.437,0.399,0.565,1.404,0.99,1.509c5.847,1.453,2.406,3.505,0.536,5.747c-2.191,2.626-2.055,2.719-4.518,0.421
		c-1.022-0.954-2.344-0.544-3.548-0.697C-477.26,633.09-479.392,634.098-481.089,632.421z"/>
	<linearGradient id="SVGID_6_" gradientUnits="userSpaceOnUse" x1="-386.0573" y1="813.5206" x2="-233.3587" y2="813.5206">
		<stop  offset="0" style="stop-color:#FFFFFF"/>
		<stop  offset="1" style="stop-color:#FFFFFF"/>
	</linearGradient>
	<path style="fill:url(#SVGID_6_);" d="M-384.874,814.175c-0.292-0.086-0.633-0.105-0.866-0.273
		c-0.453-0.326-0.445-0.715,0.176-0.758c1.062-0.073,2.132-0.043,3.199-0.056c1.296-0.773,2.726-0.431,4.093-0.431
		c44.456-0.019,88.911-0.019,133.367,0c1.367,0.001,2.797-0.341,4.093,0.431c0.313,0,0.627,0.001,0.94,0.001
		c1.551-0.692,3.101-0.695,4.651,0.001c0.378-0.027,0.757-0.053,1.135-0.08c0.745,0.266,1.032,0.932,0.317,1.233
		c-0.799,0.337-1.815,0.201-2.736,0.201c-48.847,0.004-97.694,0.001-146.54-0.013C-383.656,814.432-384.265,814.265-384.874,814.175
		z"/>
	<linearGradient id="SVGID_7_" gradientUnits="userSpaceOnUse" x1="-417.7547" y1="771.5265" x2="-279.9296" y2="771.5265">
		<stop  offset="0" style="stop-color:#FFFFFF"/>
		<stop  offset="1" style="stop-color:#FFFFFF"/>
	</linearGradient>
	<path style="fill:url(#SVGID_7_);" d="M-279.93,771.21c-1.389,1.486-3.203,0.875-4.831,0.876c-42.721,0.033-85.442,0.033-128.164,0
		c-1.628-0.001-3.442,0.611-4.831-0.876c1.691-0.122,3.382-0.351,5.074-0.351c42.559-0.02,85.119-0.02,127.678,0
		C-283.312,770.859-281.621,771.087-279.93,771.21z"/>
	<path style="fill:#161323;" d="M-592.036,381.808c4.408-5.005,9.681-8.811,15.826-11.405c-0.164,0.729-0.089,1.863-0.53,2.123
		c-4.943,2.916-8.157,7.202-10.152,13.134C-586.205,379.958-589.332,381.222-592.036,381.808z"/>
	<linearGradient id="SVGID_8_" gradientUnits="userSpaceOnUse" x1="-464.3299" y1="813.4689" x2="-412.9907" y2="813.4689">
		<stop  offset="0" style="stop-color:#FFFFFF"/>
		<stop  offset="1" style="stop-color:#FFFFFF"/>
	</linearGradient>
	<path style="fill:url(#SVGID_8_);" d="M-464.289,813.096c0.609-0.003,1.219-0.006,1.828-0.009c1.548-0.691,3.097-0.69,4.645,0
		c0.316,0,0.632-0.001,0.948-0.001c9.051-0.989,18.13-0.323,27.194-0.389c5.205-0.038,10.446-0.622,15.632,0.392
		c0.35,0.161,0.701,0.321,1.051,0.482c-0.458,0.208-0.915,0.416-1.372,0.624c-16.069,0.082-32.138,0.166-48.207,0.24
		C-463.463,814.439-464.557,814.619-464.289,813.096z"/>
	<path style="fill:#FFFFFF;" d="M-58.147,460.126c-0.352-0.002-0.703-0.005-1.055-0.007c-1.01-10.896-0.196-21.817-0.424-32.724
		c-0.031-1.506-0.397-3.086,0.426-4.528c0.411-2.467-0.913-5.146,0.906-7.441C-57.527,430.323-57.733,445.225-58.147,460.126z"/>
	<path style="fill:#161323;" d="M-601.12,393.085c2.291-4.365,5.252-8.191,9.103-11.299c0.8,1.297,0.583,2.198-0.85,2.954
		c-1.865,0.985-2.601,2.237-2.46,4.77C-595.128,393.065-598.246,393.357-601.12,393.085z"/>
	<path style="fill:#161323;" d="M-486.995,606.586c-0.927-0.616-1.663-1.612-1.028-2.277c0.918-0.961,1.162,0.231,1.267,0.927
		C-486.695,605.642-486.897,606.088-486.995,606.586z"/>
	<path style="fill:#FEFEFC;" d="M-479.134,283.281c-11.793,0.001-23.587,0.019-35.38-0.007c-5.823-0.013-8.914-2.524-8.944-7.153
		c-0.03-4.602,3.053-7.218,8.864-7.228c23.432-0.039,46.864,0.004,70.295-0.03c3.632-0.005,6.478,1.227,7.675,4.785
		c1.164,3.46-0.03,6.238-2.858,8.629c-1.427,1.206-2.809,0.981-4.272,0.985C-455.547,283.294-467.34,283.281-479.134,283.281z"/>
	<path style="fill:#FEFEFD;" d="M-396.338,800.035c-7.914,0-15.828,0.042-23.741-0.014c-5.571-0.04-8.847-2.852-8.823-7.399
		c0.024-4.521,3.288-7.273,8.902-7.29c15.828-0.049,31.656-0.055,47.483-0.03c5.938,0.01,9.104,2.766,8.994,7.643
		c-0.102,4.529-3.239,7.025-9.073,7.061c-7.914,0.05-15.828,0.012-23.742,0.012C-396.338,800.024-396.338,800.03-396.338,800.035z"
		/>
	<linearGradient id="SVGID_9_" gradientUnits="userSpaceOnUse" x1="-382.3655" y1="812.5758" x2="-240.8132" y2="812.5758">
		<stop  offset="0" style="stop-color:#FFFFFF"/>
		<stop  offset="1" style="stop-color:#FFFFFF"/>
	</linearGradient>
	<path style="fill:url(#SVGID_9_);" d="M-240.813,813.088c-47.184,0-94.368,0-141.552,0c1.374-1.519,3.194-0.899,4.819-0.9
		c43.971-0.033,87.943-0.033,131.914,0C-244.007,812.189-242.187,811.569-240.813,813.088z"/>
	<linearGradient id="SVGID_10_" gradientUnits="userSpaceOnUse" x1="-456.8676" y1="812.6251" x2="-414.0415" y2="812.6251">
		<stop  offset="0" style="stop-color:#FFFFFF"/>
		<stop  offset="1" style="stop-color:#FFFFFF"/>
	</linearGradient>
	<path style="fill:url(#SVGID_10_);" d="M-414.042,813.089c-14.275-0.001-28.551-0.002-42.826-0.003
		c0.762-1.004,1.867-0.923,2.943-0.923c12.314-0.001,24.628-0.001,36.942,0.001C-415.908,812.164-414.803,812.084-414.042,813.089z"
		/>
	<path style="fill:#FFFFFF;" d="M-235.222,813.09c-1.55,0-3.101-0.001-4.651-0.001C-238.323,811.71-236.772,811.714-235.222,813.09z
		"/>
	<path style="fill:#FFFFFF;" d="M-457.815,813.087c-1.548,0-3.097,0-4.645,0C-460.912,811.716-459.364,811.709-457.815,813.087z"/>
	<path style="fill:#FEFEFD;" d="M-477.309,369.495c0.322,6.77-1.971,9.904-6.253,10.376c-3.927,0.433-7.174-2.14-7.873-6.793
		c-1.884-12.545-3.649-25.109-5.295-37.687c-0.554-4.233,2.352-7.79,6.301-8.355c3.96-0.567,7.282,2.029,8.236,6.454
		c0.097,0.451,0.086,0.925,0.149,1.385C-480.391,346.981-478.734,359.088-477.309,369.495z"/>
	<linearGradient id="SVGID_11_" gradientUnits="userSpaceOnUse" x1="-516.4826" y1="315.2377" x2="-158.8528" y2="315.2377">
		<stop  offset="0" style="stop-color:#FFFFFF"/>
		<stop  offset="1" style="stop-color:#FFFFFF"/>
	</linearGradient>
	<path style="fill:url(#SVGID_11_);" d="M-158.853,315.761c-119.21,0.001-238.419,0.003-357.629,0.004c0-0.31-0.001-0.62-0.001-0.93
		c117.445-0.001,234.89-0.005,352.335,0.03C-162.373,314.865-160.391,314.158-158.853,315.761z"/>
	<path style="fill:#FFFFFF;" d="M-79.694,443.823c-0.004-6.975-0.059-13.952,0.014-20.926c0.056-5.302,2.733-8.359,7.197-8.468
		c4.498-0.111,7.525,2.825,7.579,8.121c0.144,14.104,0.107,28.212-0.011,42.317c-0.039,4.672-3.174,7.486-7.704,7.464
		c-4.04-0.02-6.958-2.996-7.04-7.581C-79.782,457.776-79.69,450.798-79.694,443.823z"/>
	<path style="fill:#FFFFFF;" d="M-86.074,467.256c0-15.625,0-31.25,0-46.876c0.154-0.001,0.307-0.003,0.461-0.004
		c0,15.69,0,31.38,0,47.069C-85.767,467.383-85.921,467.319-86.074,467.256z"/>
	<path style="fill:#FFFFFF;" d="M-59.2,422.867c-0.001,12.417-0.001,24.835-0.002,37.252c-0.261-0.37-0.748-0.739-0.749-1.109
		c-0.04-11.678-0.04-23.356,0.001-35.034C-59.949,423.605-59.461,423.236-59.2,422.867z"/>
	<path style="fill:#FFFFFF;" d="M-271.488,305.064L-271.488,305.064c0-3.984,3.23-7.214,7.214-7.214h-26.971
		c3.984,0,7.214,3.23,7.214,7.214v0c0,3.984-3.23,7.214-7.214,7.214h26.971C-268.258,312.278-271.488,309.048-271.488,305.064z"/>
	<path style="fill:#FFFFFF;" d="M-530.604,466.921L-530.604,466.921c4.053-0.551,7.78,2.203,8.326,6.15l-6.789-49.135
		c0.545,3.947-2.298,7.594-6.351,8.144l0,0c-4.053,0.551-7.78-2.203-8.326-6.15l6.788,49.135
		C-537.5,471.118-534.657,467.471-530.604,466.921z"/>
	<circle style="fill:#161323;" cx="-532.702" cy="451.285" r="7.239"/>
	<path style="fill:#161323;" d="M-50.176,458.524L-50.176,458.524c-4.118,0-7.457-3.338-7.457-7.457v-8.162
		c0-4.118,3.338-7.457,7.457-7.457h0c4.118,0,7.457,3.338,7.457,7.457v8.162C-42.719,455.186-46.057,458.524-50.176,458.524z"/>
	<path style="fill:#FEFEFD;" d="M-478.043,409.98L-478.043,409.98c-3.73,0.651-7.281-1.844-7.933-5.574l-1.767-10.115
		c-0.651-3.73,1.844-7.281,5.574-7.933l0,0c3.73-0.651,7.281,1.844,7.933,5.574l1.767,10.115
		C-471.818,405.777-474.313,409.329-478.043,409.98z"/>
	<g>
		<path style="fill:#1E2735;" d="M-321.122,495.062l-18.298-9.495c-1.033-0.536-2.265-0.53-3.292,0.018l-18.195,9.691
			c-2.588,1.378-5.633-0.809-5.153-3.702l3.376-20.337c0.191-1.149-0.196-2.318-1.034-3.126l-14.839-14.31
			c-2.111-2.035-0.971-5.607,1.928-6.045l20.385-3.074c1.151-0.174,2.144-0.903,2.653-1.949l9.024-18.535
			c1.284-2.636,5.033-2.656,6.345-0.034l9.222,18.437c0.521,1.041,1.521,1.76,2.674,1.921l20.416,2.855
			c2.904,0.406,4.082,3.966,1.993,6.024l-14.685,14.468c-0.829,0.817-1.204,1.99-1.001,3.137l3.594,20.299
			C-315.498,494.193-318.52,496.413-321.122,495.062z"/>
		<path style="fill:#161323;" d="M-316.048,536.84L-316.048,536.84c-2.447-1.413-3.285-4.541-1.872-6.987l1.093-1.893
			c1.413-2.447,4.541-3.285,6.987-1.872h0c2.447,1.412,3.285,4.541,1.872,6.987l-1.093,1.893
			C-310.473,537.414-313.601,538.253-316.048,536.84z"/>
		<g>
			<path style="fill:#161323;" d="M-322.191,518.956l-10.003-5.259c-4.862-2.556-10.668-2.557-15.53,0l-36.251,19.058
				c-1.996,1.049-3.624,0.135-4.231-0.306c-0.608-0.441-1.98-1.708-1.599-3.93l6.923-40.365c0.928-5.414-0.866-10.935-4.799-14.77
				l-29.327-28.587c-1.614-1.573-1.249-3.405-1.017-4.119c0.232-0.714,1.013-2.411,3.244-2.735l40.529-5.889
				c5.436-0.79,10.133-4.203,12.564-9.129l3.812-7.723c0.946-1.917,0.992-4.2-0.039-6.073c-0.609-1.106-1.529-2.022-2.716-2.595l0,0
				c-1.829-0.883-3.901-0.764-5.676,0.139c-1.35,0.686-2.399,1.849-3.07,3.207l-3.671,7.438c-0.585,1.186-1.716,2.008-3.025,2.198
				l-40.529,5.889c-6.332,0.92-11.493,5.272-13.47,11.357c-1.977,6.085-0.359,12.639,4.223,17.106l29.327,28.586
				c0.947,0.924,1.379,2.253,1.156,3.557l-6.923,40.365c-1.082,6.306,1.462,12.56,6.638,16.321c2.925,2.125,6.347,3.205,9.792,3.205
				c2.652,0,5.318-0.64,7.781-1.935l36.228-19.046c1.185-0.623,2.601-0.623,3.786,0l9.454,4.97c1.642,0.863,3.57,1.125,5.34,0.569
				c1.593-0.5,2.968-1.562,3.789-3.099l0,0c0.288-0.539,0.489-1.103,0.609-1.677C-318.309,522.979-319.743,520.243-322.191,518.956z
				"/>
			<path style="fill:#161323;" d="M-254.068,453.868c4.582-4.466,6.2-11.02,4.223-17.106c-1.977-6.085-7.139-10.437-13.471-11.357
				l-40.529-5.889c-1.309-0.19-2.44-1.012-3.026-2.199l-17.973-36.417c-2.95-5.976-9.086-9.843-15.746-9.599
				c-6.143,0.226-11.595,3.741-14.333,9.29l-5.37,10.881c-0.945,1.916-0.99,4.197,0.043,6.067c0.609,1.103,1.527,2.016,2.712,2.588
				l0,0c2.292,1.107,4.965,0.639,6.958-0.969c0.71-0.573,1.269-1.312,1.673-2.13l5.345-10.829c0.998-2.022,2.852-2.24,3.603-2.24
				s2.606,0.218,3.603,2.24l18.125,36.725c2.431,4.926,7.128,8.339,12.564,9.129l40.529,5.889c2.231,0.324,3.012,2.021,3.244,2.735
				c0.232,0.714,0.598,2.545-1.017,4.119l-29.328,28.587c-3.934,3.834-5.727,9.356-4.799,14.77l6.923,40.366
				c0.381,2.222-0.991,3.488-1.599,3.93c-0.608,0.441-2.236,1.355-4.232,0.306l-0.202-0.106c-1.751-0.921-3.847-1.081-5.652-0.269
				c-1.266,0.57-2.342,1.523-3.028,2.809l0,0c-0.837,1.567-0.942,3.339-0.438,4.967c0.49,1.587,1.652,2.88,3.122,3.653h0
				c5.899,3.101,13.137,2.622,18.381-1.491c4.836-3.793,7.18-9.842,6.134-15.939l-6.923-40.365
				c-0.224-1.304,0.209-2.633,1.156-3.557L-254.068,453.868z"/>
		</g>
	</g>
	<g>
		<line style="fill:#161323;" x1="-509.822" y1="878.848" x2="-95.412" y2="878.848"/>
		<path style="fill:#161323;" d="M-100.615,884.051h-409.207v-10.406h409.207c2.874,0,5.203,2.33,5.203,5.203l0,0
			C-95.412,881.722-97.741,884.051-100.615,884.051z"/>
	</g>
	<g>
		<line style="fill:#161323;" x1="-85.005" y1="878.622" x2="-64.645" y2="878.622"/>
		<path style="fill:#161323;" d="M-69.848,883.825h-9.954c-2.874,0-5.203-2.33-5.203-5.203l0,0c0-2.874,2.33-5.203,5.203-5.203
			h9.954c2.874,0,5.203,2.33,5.203,5.203l0,0C-64.645,881.495-66.975,883.825-69.848,883.825z"/>
	</g>
</g>
<g>
	<path style="fill:#2D4961;" d="M334.924,432.743c11.331-9.116,17.92-22.878,17.912-37.424v-57.656
		c0-17.665-14.322-31.986-31.987-31.986H96.944c-17.665,0-31.987,14.322-31.987,31.986v57.656
		c-0.008,14.546,6.581,28.308,17.912,37.424l110.034,88.443v18.312v0.48l-34.865,74.209l-77.567,11.835
		c-9.836,1.407-16.673,10.523-15.266,20.359c0.536,3.742,2.239,7.229,4.87,9.948l56.616,58.055l-13.754,82.205
		c-1.591,9.812,5.062,19.056,14.874,20.647c3.982,0.648,8.069-0.064,11.595-2.015l69.491-38.224l69.171,38.224
		c8.58,5.006,19.6,2.103,24.606-6.477c2.135-3.67,2.911-7.973,2.183-12.155l-13.754-82.205l56.616-58.055
		c6.917-7.133,6.749-18.52-0.384-25.445c-2.671-2.591-6.085-4.294-9.772-4.862l-77.567-11.835l-35.105-74.289v-0.48v-18.232
		L334.924,432.743z"/>
	<path style="fill:#123247;" d="M336.843,353.657v46.061c-0.016,7.285-3.343,14.17-9.036,18.712l-86.923,69.651
		c-10.092,8.029-15.977,20.215-15.993,33.106l0,0l110.034-88.443c11.331-9.116,17.92-22.878,17.912-37.424v-57.656
		C344.008,337.663,336.843,344.82,336.843,353.657z"/>
	<path style="fill:#44637F;" d="M96.944,305.677c-17.665,0-31.987,14.322-31.987,31.986v55.976l0,0
		c8.836,0,15.993-7.157,15.993-15.993v-39.983c0-8.836,7.157-15.993,15.993-15.993h207.912c8.836,0,15.993-7.157,15.993-15.993
		H96.944z"/>
	<path style="fill:#123247;" d="M291.102,714.384l56.616-58.055c4.718-4.838,6.317-11.915,4.158-18.312
		c-0.36-0.888-0.784-1.743-1.279-2.559c-4.062,0.4-7.909,2.015-11.035,4.638l-45.341,46.46c-7.085,7.277-10.292,17.489-8.636,27.508
		l10.795,66.212c1.591,9.812-5.062,19.056-14.874,20.647c-3.982,0.648-8.069-0.064-11.595-2.015l-53.657-29.428
		c-9.732-5.47-21.615-5.47-31.347,0l-53.258,29.588c-0.736,0.36-1.519,0.624-2.319,0.8c-5.614,1.583-8.876,7.421-7.285,13.026
		c0.232,0.808,0.552,1.591,0.968,2.327l0,0c5.246,2.799,11.547,2.799,16.793,0l69.091-38.224l69.171,38.224
		c8.58,5.006,19.6,2.103,24.606-6.477c2.135-3.67,2.911-7.973,2.183-12.155L291.102,714.384z"/>
	<polygon style="fill:#5FD2FF;" points="208.897,740.453 149.482,773.32 160.837,703.589 111.978,653.53 179.469,643.214 
		208.897,580.521 238.325,643.214 305.816,653.53 256.957,703.589 268.312,773.32 	"/>
	<polygon style="fill:#78E6FF;" points="188.426,656.249 216.414,596.594 208.897,580.521 179.469,643.214 111.978,653.53 
		124.213,666.085 	"/>
	<polygon style="fill:#69B2F9;" points="305.816,653.53 287.984,650.811 248.001,691.834 259.356,761.485 199.941,728.698 
		152.521,754.847 149.482,773.32 208.897,740.453 268.312,773.32 256.957,703.589 	"/>
	<path style="fill:#3689C9;" d="M102.942,407.794c-3.79-3.031-5.997-7.621-5.997-12.475v-57.656H320.85v57.656
		c0,4.854-2.207,9.444-5.997,12.475l-105.955,85.164L102.942,407.794z"/>
	<g>
		<polygon style="fill:#E2E5E7;" points="280.867,435.142 280.867,353.657 248.88,353.657 248.88,460.811 		"/>
		<polygon style="fill:#E2E5E7;" points="168.914,460.811 168.914,353.657 136.927,353.657 136.927,435.142 		"/>
		<polygon style="fill:#E2E5E7;" points="192.904,480.083 208.897,492.958 224.89,480.083 224.89,353.657 192.904,353.657 		"/>
	</g>
	<rect x="96.92" y="337.663" style="fill:#4C9FD7;" width="223.906" height="15.993"/>
	<g>
		<rect x="136.903" y="337.663" style="fill:#F1F2F2;" width="31.987" height="15.993"/>
		<rect x="192.88" y="337.663" style="fill:#F1F2F2;" width="31.987" height="15.993"/>
		<rect x="248.856" y="337.663" style="fill:#F1F2F2;" width="31.987" height="15.993"/>
	</g>
	<path style="fill:#44637F;" d="M192.904,521.586v17.912v0.48l-34.865,74.209l-77.567,11.835
		c-9.836,1.407-16.673,10.524-15.266,20.359c0.536,3.742,2.239,7.229,4.87,9.948l2.879,3.039
		c0.104-8.732,6.549-16.097,15.194-17.353l61.334-9.356c10.308-1.463,19.256-7.845,23.99-17.113l31.267-61.974
		c2.719-5.294,4.142-11.163,4.158-17.113l0,0c0-8.213-6.661-14.874-14.874-14.874l0,0H192.904z"/>
</g>
<g>
	<path style="fill:#2D4961;" d="M752.591,432.743c11.331-9.116,17.92-22.878,17.912-37.424v-57.656
		c0-17.665-14.322-31.986-31.987-31.986H514.611c-17.665,0-31.986,14.322-31.986,31.986v57.656
		c-0.008,14.546,6.581,28.308,17.912,37.424l110.034,88.443v18.312v0.48l-34.865,74.209l-77.567,11.835
		c-9.836,1.407-16.673,10.523-15.266,20.359c0.536,3.742,2.239,7.229,4.87,9.948l56.616,58.055l-13.754,82.205
		c-1.591,9.812,5.062,19.056,14.874,20.647c3.982,0.648,8.069-0.064,11.595-2.015l69.491-38.224l69.171,38.224
		c8.58,5.006,19.6,2.103,24.606-6.477c2.135-3.67,2.911-7.973,2.183-12.155l-13.754-82.205l56.616-58.055
		c6.917-7.133,6.749-18.52-0.384-25.445c-2.671-2.591-6.085-4.294-9.772-4.862l-77.567-11.835l-35.105-74.289v-0.48v-18.232
		L752.591,432.743z"/>
	<path style="fill:#123247;" d="M754.51,353.657v46.061c-0.016,7.285-3.343,14.17-9.036,18.712L658.55,488.08
		c-10.092,8.029-15.977,20.215-15.993,33.106l0,0l110.034-88.443c11.331-9.116,17.92-22.878,17.912-37.424v-57.656
		C761.675,337.663,754.51,344.82,754.51,353.657z"/>
	<path style="fill:#44637F;" d="M514.611,305.677c-17.665,0-31.986,14.322-31.986,31.986v55.976l0,0
		c8.836,0,15.993-7.157,15.993-15.993v-39.983c0-8.836,7.157-15.993,15.993-15.993h207.912c8.836,0,15.993-7.157,15.993-15.993
		H514.611z"/>
	<path style="fill:#123247;" d="M708.769,714.384l56.616-58.055c4.718-4.838,6.317-11.915,4.158-18.312
		c-0.36-0.888-0.784-1.743-1.279-2.559c-4.062,0.4-7.909,2.015-11.035,4.638l-45.341,46.46c-7.085,7.277-10.292,17.489-8.636,27.508
		l10.795,66.212c1.591,9.812-5.062,19.056-14.874,20.647c-3.982,0.648-8.069-0.064-11.595-2.015l-53.657-29.428
		c-9.732-5.47-21.615-5.47-31.347,0l-53.258,29.588c-0.736,0.36-1.519,0.624-2.319,0.8c-5.614,1.583-8.876,7.421-7.285,13.026
		c0.232,0.808,0.552,1.591,0.968,2.327l0,0c5.246,2.799,11.547,2.799,16.793,0l69.091-38.224l69.171,38.224
		c8.58,5.006,19.6,2.103,24.606-6.477c2.135-3.67,2.911-7.973,2.183-12.155L708.769,714.384z"/>
	<polygon style="fill:#29FF60;" points="626.564,740.453 567.149,773.32 578.504,703.589 529.645,653.53 597.136,643.214 
		626.564,580.521 655.991,643.214 723.483,653.53 674.623,703.589 685.979,773.32 	"/>
	<polygon style="fill:#7DFFB2;" points="606.092,656.249 634.081,596.594 626.564,580.521 597.136,643.214 529.645,653.53 
		541.879,666.085 	"/>
	<polygon style="fill:#18D31C;" points="723.483,653.53 705.65,650.811 665.667,691.834 677.022,761.485 617.607,728.698 
		570.188,754.847 567.149,773.32 626.564,740.453 685.979,773.32 674.623,703.589 	"/>
	<path style="fill:#3689C9;" d="M520.608,407.794c-3.79-3.031-5.997-7.621-5.997-12.475v-57.656h223.906v57.656
		c0,4.854-2.207,9.444-5.997,12.475l-105.955,85.164L520.608,407.794z"/>
	<g>
		<polygon style="fill:#E2E5E7;" points="698.533,435.142 698.533,353.657 666.547,353.657 666.547,460.811 		"/>
		<polygon style="fill:#E2E5E7;" points="586.581,460.811 586.581,353.657 554.594,353.657 554.594,435.142 		"/>
		<polygon style="fill:#E2E5E7;" points="610.57,480.083 626.564,492.958 642.557,480.083 642.557,353.657 610.57,353.657 		"/>
	</g>
	<rect x="514.587" y="337.663" style="fill:#4C9FD7;" width="223.906" height="15.993"/>
	<g>
		<rect x="554.57" y="337.663" style="fill:#F1F2F2;" width="31.987" height="15.993"/>
		<rect x="610.546" y="337.663" style="fill:#F1F2F2;" width="31.987" height="15.993"/>
		<rect x="666.523" y="337.663" style="fill:#F1F2F2;" width="31.987" height="15.993"/>
	</g>
	<path style="fill:#44637F;" d="M610.57,521.586v17.912v0.48l-34.865,74.209l-77.567,11.835
		c-9.836,1.407-16.673,10.524-15.266,20.359c0.536,3.742,2.239,7.229,4.87,9.948l2.879,3.039
		c0.104-8.732,6.549-16.097,15.194-17.353l61.334-9.356c10.308-1.463,19.256-7.845,23.99-17.113l31.267-61.974
		c2.719-5.294,4.142-11.163,4.158-17.113l0,0c0-8.213-6.661-14.874-14.874-14.874l0,0H610.57z"/>
</g>
<polygon style="fill:none;stroke:#AEBBCE;stroke-width:9;stroke-miterlimit:10;" points="69.773,514.893 35.779,508.024 
	58.725,482.019 "/>
<g>
	
		<line style="fill:none;stroke:#AEDFF8;stroke-width:9;stroke-miterlimit:10;" x1="-133.124" y1="698.874" x2="-115.408" y2="698.874"/>
	
		<line style="fill:none;stroke:#AEDFF8;stroke-width:9;stroke-miterlimit:10;" x1="-99.715" y1="698.874" x2="-81.998" y2="698.874"/>
	
		<line style="fill:none;stroke:#AEDFF8;stroke-width:9;stroke-miterlimit:10;" x1="-107.561" y1="673.311" x2="-107.561" y2="691.028"/>
	
		<line style="fill:none;stroke:#AEDFF8;stroke-width:9;stroke-miterlimit:10;" x1="-107.561" y1="706.721" x2="-107.561" y2="724.438"/>
</g>
<g>
	<line style="fill:none;stroke:#C8E09B;stroke-width:7;stroke-miterlimit:10;" x1="-664" y1="263.654" x2="-645.527" y2="263.654"/>
	
		<line style="fill:none;stroke:#C8E09B;stroke-width:7;stroke-miterlimit:10;" x1="-629.165" y1="263.654" x2="-610.692" y2="263.654"/>
	<line style="fill:none;stroke:#C8E09B;stroke-width:7;stroke-miterlimit:10;" x1="-637.346" y1="237" x2="-637.346" y2="255.473"/>
	
		<line style="fill:none;stroke:#C8E09B;stroke-width:7;stroke-miterlimit:10;" x1="-637.346" y1="271.835" x2="-637.346" y2="290.308"/>
</g>
<g>
	
		<line style="fill:none;stroke:#C792C1;stroke-width:9;stroke-miterlimit:10;" x1="-611.647" y1="785.056" x2="-597.066" y2="785.056"/>
	
		<line style="fill:none;stroke:#C792C1;stroke-width:9;stroke-miterlimit:10;" x1="-584.151" y1="785.056" x2="-569.57" y2="785.056"/>
	
		<line style="fill:none;stroke:#C792C1;stroke-width:9;stroke-miterlimit:10;" x1="-590.608" y1="764.017" x2="-590.608" y2="778.598"/>
	
		<line style="fill:none;stroke:#C792C1;stroke-width:9;stroke-miterlimit:10;" x1="-590.608" y1="791.513" x2="-590.608" y2="806.094"/>
</g>
<circle style="opacity:0.46;fill:none;stroke:#FDB913;stroke-width:9;stroke-miterlimit:10;" cx="-49.831" cy="298.442" r="17.193"/>
<path style="fill:none;stroke:#F58B74;stroke-width:14;stroke-miterlimit:10;" d="M-581.457,676.187h-31.219
	c-1.499,0-2.715-1.215-2.715-2.715l0,0c0-1.499,1.215-2.715,2.715-2.715h31.219c1.499,0,2.715,1.215,2.715,2.715l0,0
	C-578.742,674.972-579.958,676.187-581.457,676.187z"/>
<path style="fill:none;stroke:#C6E09B;stroke-width:14;stroke-miterlimit:10;" d="M-80.641,817.19h-31.219
	c-1.499,0-2.715-1.215-2.715-2.715l0,0c0-1.499,1.215-2.715,2.715-2.715h31.219c1.499,0,2.715,1.215,2.715,2.715l0,0
	C-77.926,815.974-79.141,817.19-80.641,817.19z"/>
<circle style="opacity:0.46;fill:none;stroke:#FDB913;stroke-width:9;stroke-miterlimit:10;" cx="471.169" cy="606.442" r="17.193"/>
<g>
	
		<line style="fill:#AFD9A7;stroke:#80B6E2;stroke-width:9;stroke-miterlimit:10;" x1="456.353" y1="295.056" x2="470.934" y2="295.056"/>
	
		<line style="fill:#AFD9A7;stroke:#80B6E2;stroke-width:9;stroke-miterlimit:10;" x1="483.849" y1="295.056" x2="498.43" y2="295.056"/>
	
		<line style="fill:#AFD9A7;stroke:#80B6E2;stroke-width:9;stroke-miterlimit:10;" x1="477.392" y1="274.017" x2="477.392" y2="288.598"/>
	
		<line style="fill:#AFD9A7;stroke:#80B6E2;stroke-width:9;stroke-miterlimit:10;" x1="477.392" y1="301.513" x2="477.392" y2="316.094"/>
</g>
</svg>
