<?xml version="1.0" encoding="iso-8859-1"?>
<!-- Generator: Adobe Illustrator 22.0.1, SVG Export Plug-In . SVG Version: 6.00 Build 0)  -->
<svg version="1.1" id="Layer_1" xmlns="http://www.w3.org/2000/svg" xmlns:xlink="http://www.w3.org/1999/xlink" x="0px" y="0px"
	 viewBox="-308 -196 1354.1 1424.474" style="enable-background:new -308 -196 1354.1 1424.474;" xml:space="preserve">
<path style="fill:#999999;" d="M-270.657,307.962c-0.044,1.669-0.377,3.198-1.986,4.111c-2.202-33.68-0.469-67.399-0.926-101.097
	c-0.092-6.774-0.826-13.626,0.906-20.338c0.667,0.687,1.334,1.374,2.001,2.061c2.07,5.284,0.905,10.791,0.93,16.174
	c0.14,29.684,0.098,59.37,0.023,89.055C-269.715,301.274-268.848,304.764-270.657,307.962z"/>
<g>
	<g>
		<path style="fill:#606060;" d="M868.639,1216.974h-981.5v0c0-67.103,54.397-121.5,121.5-121.5h738.5
			C814.242,1095.474,868.639,1149.871,868.639,1216.974L868.639,1216.974z"/>
		<path style="fill:#161323;" d="M880.139,1228.474h-1004.5v-11.5c0-73.337,59.664-133,133-133h738.5c73.337,0,133,59.663,133,133
			V1228.474z M-100.764,1205.474h957.307c-5.769-55.27-52.633-98.5-109.403-98.5H8.639
			C-48.131,1106.974-94.996,1150.204-100.764,1205.474z"/>
	</g>
	<path style="fill:#161323;" d="M1029.591,307.658c-0.062-0.001-0.125-0.001-0.188-0.001h0c-9.795,0-17.735,7.139-17.735,15.945
		V193.989c0,8.806,7.94,15.945,17.735,15.945h0c0.296,0,0.586-0.006,0.906-0.024c8.235-0.466,14.563-7.547,14.238-15.789
		C1040.195,83.733,952.292-8.311,841.335-17.642c-3.871-0.326-9.856,1.502-8.465-6.366c0.961-5.439-0.419-12.078,9.014-11.115
		c7.129,0.728,14.394,0.179,21.597,0.114c15.748-0.141,20.92-5.466,20.609-21.115c-1.5-75.474-65.881-139.409-142.286-139.615
		c-171.182-0.463-342.365-0.177-513.548-0.145c-12.449,0.003-16.849,3.791-19.833,16.195c-1.254,9.437,2.633,15.449,11.814,18.225
		c5.022,1.518,10.2,1.099,15.329,1.099c164.6,0.018,329.2,0.015,493.8,0.004c5.83,0,11.662,0.003,17.483,0.288
		c43.913,2.155,84.944,34.713,97.053,76.957c3.521,12.283,2.61,13.552-10.229,13.553c-309.31,0.015-618.621,0.014-927.931,0
		c-13.407,0-14.336-1.321-10.456-14.198c13.039-43.273,54.338-75.427,99.605-76.278c51.768-0.973,103.556-0.183,155.334-0.325
		c4.79-0.013,9.62,0.328,14.31-1.044c9.128-2.668,13.086-8.554,12.225-18.137c-2.899-12.771-7.252-16.3-20.662-16.311
		c-51.441-0.041-102.883,0.01-154.324-0.042c-11.712-0.012-23.263,1.288-34.674,3.782
		c-63.345,13.845-111.907,73.397-112.206,137.521c-0.064,13.712,5.379,19.352,19.066,19.572c7.2,0.116,14.492,0.752,21.583-0.131
		c9.326-1.161,10.602,3.615,11.144,11.176c0.641,8.933-5.839,5.573-9.676,6.333c-5.698,1.128-11.553,1.433-17.306,2.32
		C-214.087-0.865-294.085,80.344-303.31,174.434c-5.683,57.963-7.443,116.782,1.856,174.431
		c16.635,103.13,59.474,185.145,127.27,246.349c6.669,6.021,17.227,4.974,22.396-2.374c0.039-0.056,0.078-0.111,0.117-0.167l0,0
		c5.827-8.447,4.674-19.348-2.575-24.348l63.888,44.068c-7.249-5-17.848-2.206-23.675,6.241l0,0
		c-0.047,0.069-0.094,0.137-0.14,0.206c-5.571,8.275-2.81,19.57,5.757,24.681c25.98,15.498,54.405,28.935,85.254,40.306
		c51.467,18.972,105.56,22.886,160.06,21.037c8.881-0.301,16.378,1.713,24.062,6.425c31.669,19.417,65.579,33.95,101.572,43.196
		c8.143,2.092,8.679,5.001,6.34,12.364c-18.13,57.062-35.924,114.231-53.439,171.485c-1.904,6.225-4.775,8.596-11.021,9.513
		c-70.01,10.286-120.832,66.536-124.465,137.402c-0.778,15.169,5.163,21.55,20.26,21.563c40.124,0.033,80.25-0.22,120.371,0.16
		c11.439,0.108,18.285-4.219,20.698-15.39c0.294-12.389-2.58-15.628-17.7-19.916c-17.3-1.278-34.634-0.556-51.952-0.872
		c-17.626-0.322-35.279,1.104-52.938-0.721c-1.766-2.153-0.984-4.494-0.453-6.807c10.641-46.365,55.323-81.718,102.768-81.353
		c99.075,0.039,198.178,0.011,297.308-0.017c41.905-0.236,83.458,28.333,97.798,67.476c2.407,6.571,5.903,13.262,2.596,20.689
		c-3.263,1.264-6.726,0.721-10.13,0.721c-90.221,0.008-180.442-0.013-270.663,0.043c-15.431,0.01-30.87-0.507-46.299,0.417
		c-3.312,0.64-6.742,1.296-9.591,2.934c-6.187,3.557-12.3,7.514-9.424,16.424c3.265,12.907,7.115,16.203,19.678,16.206
		c115.951,0.033,231.903,0.039,347.855-0.003c13.252-0.005,19.247-6.416,19.015-19.795
		c-1.192-68.809-55.063-129.935-122.856-138.941c-7.398-0.983-10.686-3.644-13.175-11.044
		c-19.197-57.063-31.151-116.313-52.367-172.726c-2.769-7.363,1.362-7.789,6.136-8.999c31.687-8.029,62.269-19.44,90.013-36.511
		c17.811-10.959,35.633-14.617,56.11-14.1c72.333,1.828,141.188-13.579,204.296-49.122
		c126.68-71.346,199.364-179.521,215.561-324.483c0.28-2.509,0.534-5.02,0.764-7.531
		C1044.387,315.192,1037.986,307.736,1029.591,307.658z M-77.203,507.835c-60.22-52.456-94.117-118.414-99.165-198.364
		c-2.203-34.888-2.795-69.972,0.178-104.808c4.154-48.688,43.189-87.574,91.676-94.055c7.47-0.999,9.937,1.004,10.925,8.449
		c10.274,77.404,20.581,154.807,31.516,232.12c7.319,51.747,10.407,104.353,30.341,153.688
		c7.314,18.104,15.195,35.888,25.443,55.142C-21.182,547.72-50.954,530.699-77.203,507.835z M908.677,356.505
		c-23.788,95.742-82.94,161.321-173.479,199.586c22.404-41.768,39.638-85.337,46.863-132.047
		c5.964-38.562,9.166-77.553,13.53-116.36c7.083-62.984,14.175-125.968,21.082-188.971c0.751-6.852,2.732-8.987,10.231-7.57
		c49.632,9.382,85.92,46.558,88.42,96.929C917.781,257.569,920.817,307.642,908.677,356.505z"/>
	<linearGradient id="SVGID_1_" gradientUnits="userSpaceOnUse" x1="-111.3387" y1="-123.243" x2="850.5029" y2="-123.243">
		<stop  offset="0" style="stop-color:#A5A7A9"/>
		<stop  offset="1" style="stop-color:#EBEBEC"/>
	</linearGradient>
	<path style="fill:url(#SVGID_1_);" d="M208.424-179.689c3.458,13.037,7.569,16.096,22.025,16.098
		c168.713,0.019,337.427-0.046,506.14,0.065c54.031,0.036,97.609,32.732,111.555,83.161c0.729,2.636,1.008,5.406,1.849,7.999
		c1.307,4.027,0.156,5.832-4.165,5.537c-2.048-0.14-4.113-0.039-6.171-0.039c-313.423-0.001-626.846-0.001-940.269-0.002
		c-12.021,0-12.021-0.005-9.157-11.504c12.211-49.028,56.468-84.592,107.009-85.031c52.805-0.459,105.616-0.125,158.425-0.179
		c13.588-0.014,17.604-3.126,21.097-15.96C187.317-179.591,197.871-179.64,208.424-179.689z"/>
	<path style="fill:#999999;" d="M521.817,979.071c43.557-0.372,93.036,39.411,100.797,81.192c0.676,3.639,0.372,7.46,0.523,11.196
		c-0.722,0.799-1.605,1.066-2.653,0.804c-4.126-1.308-8.235-0.229-12.378,0.068c-1.157-0.344-2.307-0.551-3.509-0.627
		c-101.878-0.124-203.729-0.103-305.543-0.011c-2.92,0.411-5.846,1.013-8.855,1.078c-1.353,0.029-2.052,0.761-0.731,0.392
		c0.049-0.014,0.264,0.566,0.401,0.87c-9.316,1.81-15.757,6.62-17.276,16.563c-0.671-0.017-1.305-0.179-1.902-0.485
		c-8.911-1.913-17.822-1.442-26.733-0.003c-0.897,0.504-1.794,1.008-2.688,1.492c-1.297-9.86-6.887-15.635-16.579-17.524
		c0.571-2.169,0.571-2.169-3.476-2.387c-29.218-0.042-58.391-0.175-87.542,0.05c-1.071,0.13-2.141,0.358-3.174,0.681
		c-4.002-0.554-8.019-1.417-12.048-0.084c-1.465,0.362-2.906,0.557-4.104-0.689c-1.361-6.83,2.271-12.608,4.325-18.572
		c14.53-42.172,57.602-74.37,98.524-74.006c2.86,1.72,6.02,0.966,9.041,0.967c95.513,0.042,191.026,0.042,286.539,0
		C515.797,980.037,518.957,980.791,521.817,979.071z"/>
	<path style="fill:#999999;" d="M243.96,1090.109c7.376-5.05,16.756,1.075,24.071-4.315c0.887,1.439,1.774,2.879,2.661,4.318
		C261.781,1090.111,252.871,1090.11,243.96,1090.109z"/>
	<linearGradient id="SVGID_2_" gradientUnits="userSpaceOnUse" x1="-12.8505" y1="456.2574" x2="800.4965" y2="456.2574">
		<stop  offset="0" style="stop-color:#A5A7A9"/>
		<stop  offset="1" style="stop-color:#EBEBEC"/>
	</linearGradient>
	<path style="fill:url(#SVGID_2_);" d="M800.497-0.535c-3.622,34.069-7.098,68.155-10.897,102.205
		c-7.185,64.381-14.202,128.783-21.965,193.095c-5.829,48.288-6.106,97.634-18.73,144.652
		c-41.315,153.886-140.346,250.276-295.06,288.975c-19.324,4.834-23.092,10.519-17.064,29.853
		c4.687,15.034,9.498,30.032,14.03,45.112c2.526,8.405,7.304,13.833,16.535,14.278c0.674,0.033,1.641-0.467,1.996-0.164
		c8.356,7.149,7.047,18.358,11.33,27.248c1.37,2.843,1.89,5.41-1.783,7.8c-8.163,5.311-8.792,12.846-5.908,21.705
		c6.677,20.511,12.858,41.184,19.227,61.795c0.987,3.194,2.772,6.238,1.996,9.953c-65.849,0-131.654,0-197.46,0
		c-3.899-5.03-0.61-9.883,0.669-14.569c18.335-67.133,36.463-134.322,54.701-201.48c3.892-14.333,3.679-14.3-10.36-17.567
		c-65.981-15.358-127.283-41.003-179.835-84.589C98.558,575.217,60.611,507.863,48.803,426.319
		C37.458,347.97,27.147,269.473,16.374,191.042C6.722,120.767-2.632,50.451-12.36-19.814c-0.567-4.099-1.162-8.198,1.445-11.92
		c3.768-2.54,7.864-1.666,11.936-1.158c1.147,0.442,2.152,1.096,3.048,1.941c0.904,0.874,1.907,1.589,3.058,2.111
		c5.1,1.254,10.27,0.695,15.394,0.695c248.653,0.029,497.305,0.026,745.958,0.026c2.744,0,5.488-0.006,8.231,0.004
		c19.333,0.071,23.994,5.054,23.008,24.647C799.661-2.363,800.151-1.488,800.497-0.535z"/>
	<path style="fill:#999999;" d="M-208.701,197.234c0.391,0.605,0.325,1.156-0.197,1.652c-3.245,7.426-3.004,15.365-3.066,23.169
		c-0.181,22.826-0.06,45.654-0.035,68.482c0.035-23.772-0.008-47.544,0.102-71.315c0.01-2.05-1.355-5.046,2.315-5.796
		c0.118,26.051,0.149,52.102,0.368,78.152c1.221,145.633,99.042,270.464,240.192,306.572c2.985,0.763,5.984,1.472,8.976,2.207
		c7.212,3.458,10.334,10.66,14.957,16.459c13.694,17.177,30.47,31.363,45.522,47.217c2.255,2.375,6.775,4.377,5.262,7.999
		c-1.58,3.782-5.865,1.931-9.229,1.446c-6.373-0.92-12.934,0.97-19.252-1.156c-34.361-4.259-68.554-9.651-100.856-22.666
		c-141.581-57.044-224.624-160.679-247.362-312.029c-1.273-8.471-2.417-16.95-1.639-25.553c1.371-2.047,1.228-4.508,1.849-6.767
		c0.231-36.553,0.232-73.099-0.003-109.641c-0.27-1.803-0.786-3.52-1.866-5.028c2.754-51.168,24.564-93.299,61.776-127.598
		c31.742-29.257,69.777-44.859,112.646-49.16c7.327-0.735,10.88,0.352,11.537,9.026c1.187,15.65,3.562,31.261,6.397,46.712
		c1.272,6.934-0.499,8.955-7.133,9.587c-16.096,1.533-31.521,5.654-45.581,14.006c-10.945,9.394-23.234,16.923-34.979,25.207
		l0.043-0.05c-7.337,7.817-11.579,18.127-20.12,24.974c-10.083,13.528-14.34,29.506-19.049,45.293
		C-208.773,191.295-208.956,194.224-208.701,197.234z"/>
	<path style="fill:#999999;" d="M1012.001,291.515c1.487,54.792-9.308,107.41-33.101,156.425
		c-67.694,139.458-179.441,214.471-334.452,224.384c-1.697,0.109-3.408,0.013-4.973,0.013c-1.184-1.82,0.141-2.609,1.083-3.424
		c22.638-19.581,43.335-41.009,61.404-64.897c2.687-3.553,6.006-4.925,10.141-6.155C832.478,562.051,909.22,483.799,940.6,361.871
		c5.481-21.296,7.74-43.142,7.685-65.19c-0.069-27.441,0.098-54.883-0.036-82.324c-0.331-67.743-50.79-125.593-117.866-134.959
		c-6.085-0.85-9.196-2.1-8.151-9.329c2.402-16.614,4.146-33.329,5.816-50.038c0.474-4.734,1.971-6.501,6.965-6.084
		c98.157,8.193,169.347,85.401,176.828,173.658c0.143,1.687-0.102,3.407-0.166,5.112c-2.406,5.577,0.085,11.588-1.524,17.241
		c-0.874,26.199-0.645,52.394-0.124,78.586C1010.441,289.695,1011.099,290.686,1012.001,291.515z"/>
	<path style="fill:#FEFEFE;" d="M-13.305-31.679c3.759,28.854,7.407,57.723,11.3,86.559c8.478,62.791,16.984,125.578,25.658,188.342
		c9.329,67.502,15.769,135.59,29.007,202.324c21.835,110.078,90.602,184.103,190.538,231.149
		c33.338,15.694,68.23,26.809,104.221,34.296c8.174,1.7,8.626,4.55,6.686,11.613c-20.044,72.975-39.782,146.033-59.589,219.072
		c-0.355,1.31-0.521,2.672-0.773,4.009c-15.385,0-30.771,0-47.019,0c9.743-31.407,19.344-62.407,28.979-93.397
		c10.054-32.338,20.19-64.651,30.191-97.005c5.151-16.662,0.945-22.9-15.989-27.156C135.166,689.228,38.052,592.473,2.708,436.765
		c-10.58-46.608-13.733-94.904-20.223-142.436C-28.781,211.826-39.997,129.315-51.23,46.807c-3.42-25.126-6.642-50.282-10.389-75.36
		c-0.768-5.138,0.137-6.793,5.334-6.641c14.036,0.411,28.081,0.51,42.123,0.733C-13.447-33.665-12.431-32.963-13.305-31.679z"/>
	<linearGradient id="SVGID_3_" gradientUnits="userSpaceOnUse" x1="-14.1675" y1="-27.2183" x2="801.415" y2="-27.2183">
		<stop  offset="0" style="stop-color:#A5A7A9"/>
		<stop  offset="1" style="stop-color:#EBEBEC"/>
	</linearGradient>
	<path style="fill:url(#SVGID_3_);" d="M-13.305-31.679c-0.29-0.928-0.579-1.856-0.862-2.783c3.406-0.204,6.805-0.591,10.204-0.591
		c265.191-0.03,530.382-0.03,795.574-0.032c11.162,0,11.162-0.001,7.96,15.735c-7.249-11.2-18.488-9.47-29.469-9.466
		c-250.745,0.081-501.49,0.076-752.234-0.011c-6.353-0.002-13.138,1.711-18.879-2.838C-5.11-31.671-9.208-31.675-13.305-31.679z"/>
	<path style="fill:#161323;" d="M77.214,672.32c8.841,0,17.683,0,28.445,0c-24.705-22.684-47.769-45.049-65.705-71.964
		c7.55,0.137,10.714,6.539,15.905,11.092c3.692,3.238,2.915,16.657,14.724,10.044c3.153-1.766,7.409,3.651,9.912,7.724
		c-4.14,3.035-5.188-3.584-9.037-2.252c1.675,4.353,4.961,8.289,8.637,9.335c12.215,3.478,16.151,15.192,24.295,22.616
		c0.967,0.881,1.249,3.102,2.188,3.335c12.923,3.212,5.318,7.747,1.185,12.701c-4.842,5.804-4.543,6.01-9.985,0.931
		c-2.26-2.109-5.182-1.202-7.843-1.541C85.677,673.8,80.965,676.027,77.214,672.32z"/>
	<path style="fill:#999999;" d="M289.87,1074.034c-0.645-0.191-1.398-0.232-1.913-0.603c-1.002-0.721-0.983-1.581,0.388-1.676
		c2.348-0.162,4.712-0.095,7.069-0.125c2.865-1.707,6.024-0.952,9.046-0.953c98.256-0.042,196.512-0.042,294.768,0
		c3.021,0.001,6.181-0.755,9.045,0.953c0.693,0.001,1.385,0.002,2.078,0.002c3.427-1.531,6.853-1.536,10.279,0.003
		c0.836-0.059,1.672-0.117,2.508-0.176c1.646,0.588,2.281,2.059,0.701,2.726c-1.766,0.745-4.011,0.445-6.047,0.445
		c-107.961,0.009-215.922,0.003-323.883-0.029C292.562,1074.601,291.216,1074.231,289.87,1074.034z"/>
	<path style="fill:#999999;" d="M521.817,979.071c-3.07,3.285-7.079,1.933-10.677,1.936c-94.422,0.073-188.845,0.073-283.267,0
		c-3.598-0.003-7.608,1.35-10.677-1.936c3.738-0.27,7.476-0.775,11.214-0.777c94.064-0.043,188.129-0.043,282.193,0
		C514.342,978.296,518.079,978.801,521.817,979.071z"/>
	<path style="fill:#161323;" d="M-168,118.417c9.742-11.063,21.397-19.473,34.979-25.207c-0.363,1.61-0.197,4.118-1.171,4.693
		c-10.924,6.445-18.029,15.918-22.439,29.028C-155.112,114.327-162.024,117.12-168,118.417z"/>
	<path style="fill:#999999;" d="M114.347,1071.649c1.347-0.006,2.694-0.013,4.041-0.019c3.422-1.527,6.844-1.526,10.266,0
		c0.698-0.001,1.397-0.002,2.095-0.003c20.004-2.186,40.071-0.713,60.105-0.861c11.504-0.085,23.087-1.375,34.549,0.867
		c0.774,0.355,1.548,0.71,2.322,1.065c-1.011,0.46-2.022,0.92-3.033,1.38c-35.516,0.181-71.031,0.366-106.547,0.53
		C116.172,1074.616,113.755,1075.015,114.347,1071.649z"/>
	<path style="fill:#999999;" d="M-209.582,213.426c-3.125,11.056-0.973,22.336-1.28,33.501c-0.421,15.313-0.105,30.646-0.105,46.912
		c-3.334-3.026-1.961-6.017-1.975-8.511c-0.139-24.937-0.116-49.876-0.054-74.814c0.011-4.284-1.234-9.156,4.097-11.628
		C-209.126,203.732-209.354,208.579-209.582,213.426z"/>
	<path style="fill:#999999;" d="M1012.001,291.515c-0.777-0.005-1.555-0.011-2.332-0.016c-2.232-24.082-0.434-48.219-0.938-72.326
		c-0.07-3.328-0.878-6.82,0.943-10.008c0.909-5.453-2.018-11.373,2.003-16.447C1013.372,225.645,1012.916,258.579,1012.001,291.515z
		"/>
	<path style="fill:#161323;" d="M-188.077,143.341c5.063-9.648,11.607-18.104,20.12-24.973c1.767,2.866,1.289,4.858-1.878,6.53
		c-4.122,2.177-5.749,4.944-5.437,10.542C-174.835,143.296-181.726,143.94-188.077,143.341z"/>
	<path style="fill:#161323;" d="M64.163,615.219c-2.048-1.361-3.676-3.562-2.272-5.032c2.029-2.124,2.568,0.51,2.799,2.048
		C64.825,613.134,64.378,614.119,64.163,615.219z"/>
	<path style="fill:#FEFEFC;" d="M81.536-99.348c-26.066,0.002-52.132,0.041-78.198-0.015c-12.87-0.028-19.702-5.578-19.768-15.809
		c-0.066-10.172,6.747-15.954,19.592-15.976c51.789-0.086,103.578,0.009,155.367-0.066c8.028-0.012,14.318,2.712,16.964,10.577
		c2.573,7.648-0.066,13.788-6.317,19.073c-3.154,2.666-6.208,2.168-9.442,2.177C133.668-99.32,107.602-99.35,81.536-99.348z"/>
	<path style="fill:#EAEAEA;" d="M264.531,1042.781c-17.491,0-34.983,0.093-52.473-0.031c-12.313-0.088-19.555-6.304-19.501-16.353
		c0.053-9.993,7.267-16.074,19.675-16.113c34.982-0.109,69.965-0.122,104.948-0.066c13.123,0.021,20.122,6.114,19.878,16.893
		c-0.226,10.009-7.158,15.526-20.052,15.607c-17.491,0.11-34.983,0.027-52.474,0.027
		C264.531,1042.757,264.531,1042.769,264.531,1042.781z"/>
	<path style="fill:#999999;" d="M608.272,1071.631c-104.286,0-208.573,0-312.859,0c3.036-3.358,7.058-1.987,10.651-1.989
		c97.186-0.073,194.371-0.073,291.557,0C601.214,1069.644,605.237,1068.273,608.272,1071.631z"/>
	<path style="fill:#FEFEFD;" d="M85.569,91.202c0.712,14.963-4.357,21.89-13.82,22.932c-8.68,0.956-15.857-4.729-17.402-15.014
		c-4.165-27.727-8.066-55.496-11.703-83.297C41.42,6.47,47.843-1.392,56.571-2.643c8.751-1.254,16.094,4.484,18.202,14.264
		c0.215,0.998,0.19,2.045,0.329,3.061C78.758,41.442,82.421,68.2,85.569,91.202z"/>
	<path style="fill:#EAEAEA;" d="M-225.357,271.548c-0.01,14.733,0.064,29.466-0.033,44.198c-0.08,12.153-6.276,19.163-16.562,19.044
		c-9.936-0.116-16.099-6.911-16.148-18.414c-0.126-29.808-0.177-59.616-0.035-89.424c0.063-13.327,5.871-19.975,16.745-20.064
		c10.628-0.087,15.952,6.619,16.026,20.461C-225.285,242.082-225.346,256.815-225.357,271.548z"/>
	<path style="fill:#EAEAEA;" d="M964.379,255.481c-0.008-15.417-0.131-30.836,0.031-46.251c0.124-11.719,6.042-18.474,15.908-18.717
		c9.941-0.244,16.632,6.245,16.751,17.948c0.318,31.173,0.237,62.354-0.024,93.529c-0.087,10.325-7.016,16.544-17.028,16.496
		c-8.929-0.043-15.379-6.621-15.559-16.755C964.185,286.319,964.387,270.898,964.379,255.481z"/>
	<path style="fill:#999999;" d="M950.277,307.273c0-34.535,0-69.07,0-103.605c0.34-0.003,0.679-0.006,1.019-0.008
		c0,34.678,0,69.355,0,104.033C950.956,307.553,950.616,307.413,950.277,307.273z"/>
	<path style="fill:#999999;" d="M1009.673,209.164c-0.002,27.445-0.003,54.89-0.005,82.335c-0.576-0.817-1.653-1.633-1.656-2.452
		c-0.088-25.811-0.087-51.622,0.002-77.432C1008.018,210.796,1009.096,209.981,1009.673,209.164z"/>
	<linearGradient id="SVGID_4_" gradientUnits="userSpaceOnUse" x1="496.8069" y1="-51.2048" x2="556.4189" y2="-51.2048">
		<stop  offset="0" style="stop-color:#A5A7A9"/>
		<stop  offset="1" style="stop-color:#EBEBEC"/>
	</linearGradient>
	<path style="fill:url(#SVGID_4_);" d="M540.474-51.205L540.474-51.205c0-8.806,7.139-15.945,15.945-15.945h-59.612
		c8.806,0,15.945,7.139,15.945,15.945v0c0,8.806-7.139,15.945-15.945,15.945h59.612C547.613-35.26,540.474-42.399,540.474-51.205z"
		/>
	<path style="fill:#FFFFFF;" d="M-32.223,306.532L-32.223,306.532c8.958-1.217,17.196,4.869,18.402,13.593l-15.004-108.597
		c1.205,8.724-5.079,16.784-14.037,18.001l0,0c-8.958,1.217-17.196-4.869-18.402-13.593l15.004,108.598
		C-47.465,315.808-41.18,307.749-32.223,306.532z"/>
	<circle style="fill:#161323;" cx="-36.861" cy="271.974" r="16"/>
	<path style="fill:#161323;" d="M1029.62,287.974L1029.62,287.974c-9.102,0-16.481-7.379-16.481-16.48v-18.039
		c0-9.102,7.379-16.48,16.48-16.48h0c9.102,0,16.48,7.379,16.48,16.48v18.039C1046.1,280.595,1038.722,287.974,1029.62,287.974z"/>
	<path style="fill:#FEFEFD;" d="M83.947,180.683L83.947,180.683c-8.244,1.44-16.094-4.075-17.533-12.319l-3.905-22.357
		c-1.44-8.244,4.075-16.093,12.319-17.533l0,0c8.244-1.44,16.093,4.075,17.533,12.319l3.905,22.357
		C97.706,171.393,92.19,179.243,83.947,180.683z"/>
	<g>
		<path style="fill:#999999;" d="M477.143,466.619l-89.969-46.686c-5.082-2.637-11.135-2.604-16.188,0.087l-89.464,47.648
			c-12.725,6.777-27.697-3.979-25.336-18.201l16.599-99.993c0.938-5.648-0.964-11.395-5.085-15.369l-72.961-70.361
			c-10.378-10.008-4.775-27.571,9.481-29.72l100.228-15.113c5.661-0.854,10.539-4.438,13.046-9.585l44.371-91.133
			c6.311-12.962,24.746-13.061,31.195-0.167l45.345,90.652c2.561,5.12,7.478,8.652,13.148,9.445l100.384,14.038
			c14.278,1.997,20.069,19.499,9.799,29.617l-72.203,71.139c-4.078,4.018-5.918,9.785-4.92,15.423l17.67,99.809
			C504.795,462.344,489.939,473.259,477.143,466.619z"/>
		<path style="fill:#161323;" d="M433.989,461.068L433.989,461.068c-5.407-3.122-7.26-10.036-4.138-15.444l2.415-4.183
			c3.122-5.407,10.036-7.26,15.444-4.138l0,0c5.407,3.122,7.26,10.036,4.138,15.444l-2.415,4.183
			C446.311,462.337,439.396,464.19,433.989,461.068z"/>
		<g>
			<path style="fill:#161323;" d="M420.411,421.54l-22.11-11.623c-10.747-5.649-23.579-5.651-34.325,0l-80.122,42.121
				c-4.411,2.317-8.009,0.299-9.352-0.676c-1.343-0.976-4.375-3.775-3.533-8.687l15.302-89.216
				c2.052-11.966-1.913-24.169-10.607-32.645l-64.819-63.183c-3.568-3.478-2.76-7.525-2.247-9.104
				c0.513-1.579,2.238-5.328,7.169-6.045l89.578-13.016c12.015-1.746,22.396-9.289,27.769-20.176l8.424-17.07
				c2.091-4.237,2.192-9.283-0.086-13.422c-1.345-2.444-3.38-4.468-6.003-5.735l0,0c-4.043-1.952-8.622-1.688-12.546,0.306
				c-2.985,1.517-5.303,4.087-6.784,7.089l-8.114,16.44c-1.293,2.622-3.793,4.438-6.687,4.858l-89.578,13.016
				c-13.994,2.034-25.402,11.652-29.772,25.102c-4.37,13.449-0.793,27.936,9.333,37.807l64.819,63.182
				c2.094,2.042,3.049,4.98,2.555,7.862l-15.302,89.215c-2.391,13.938,3.231,27.76,14.672,36.072
				c6.465,4.697,14.028,7.083,21.643,7.083c5.861,0,11.753-1.414,17.197-4.276l80.071-42.094c2.619-1.377,5.748-1.377,8.367,0
				l20.896,10.986c3.63,1.909,7.89,2.487,11.803,1.258c3.52-1.106,6.56-3.453,8.374-6.849l0,0c0.637-1.192,1.082-2.438,1.346-3.707
				C428.991,430.431,425.821,424.384,420.411,421.54z"/>
			<path style="fill:#161323;" d="M570.977,277.684c10.126-9.871,13.703-24.357,9.333-37.807
				c-4.37-13.449-15.778-23.067-29.773-25.102l-89.578-13.016c-2.893-0.421-5.393-2.236-6.687-4.859l-39.723-80.488
				c-6.519-13.209-20.081-21.756-34.802-21.215c-13.577,0.499-25.628,8.269-31.68,20.532l-11.869,24.049
				c-2.089,4.234-2.187,9.276,0.094,13.41c1.345,2.437,3.376,4.455,5.994,5.719l0,0c5.065,2.446,10.974,1.413,15.378-2.143
				c1.569-1.267,2.805-2.899,3.698-4.708l11.813-23.935c2.205-4.469,6.304-4.95,7.964-4.95s5.759,0.481,7.964,4.95l40.06,81.17
				c5.374,10.888,15.754,18.431,27.77,20.177l89.577,13.016c4.932,0.717,6.657,4.466,7.17,6.045
				c0.513,1.578,1.321,5.626-2.247,9.104l-64.82,63.184c-8.694,8.475-12.659,20.678-10.606,32.644l15.302,89.217
				c0.842,4.91-2.19,7.71-3.533,8.686s-4.941,2.994-9.353,0.676l-0.447-0.235c-3.871-2.035-8.503-2.389-12.491-0.595
				c-2.799,1.259-5.176,3.366-6.693,6.208l0,0c-1.849,3.463-2.081,7.38-0.969,10.979c1.084,3.507,3.651,6.366,6.9,8.074h0
				c13.039,6.854,29.036,5.796,40.626-3.296c10.689-8.384,15.869-21.752,13.557-35.229l-15.302-89.216
				c-0.494-2.882,0.461-5.82,2.554-7.861L570.977,277.684z"/>
		</g>
	</g>
	<g>
		<line style="fill:#161323;" x1="13.71" y1="1216.974" x2="929.639" y2="1216.974"/>
		<path style="fill:#161323;" d="M918.139,1228.474H13.71v-23h904.429c6.351,0,11.5,5.149,11.5,11.5l0,0
			C929.639,1223.325,924.49,1228.474,918.139,1228.474z"/>
	</g>
	<g>
		<line style="fill:#161323;" x1="952.639" y1="1216.474" x2="997.639" y2="1216.474"/>
		<path style="fill:#161323;" d="M986.139,1227.974h-22c-6.351,0-11.5-5.149-11.5-11.5l0,0c0-6.351,5.149-11.5,11.5-11.5h22
			c6.351,0,11.5,5.149,11.5,11.5l0,0C997.639,1222.825,992.49,1227.974,986.139,1227.974z"/>
	</g>
</g>
<g>
	
		<line style="fill:none;stroke:#AEDFF8;stroke-width:14;stroke-miterlimit:10;" x1="861.139" y1="819.474" x2="900.297" y2="819.474"/>
	
		<line style="fill:none;stroke:#AEDFF8;stroke-width:14;stroke-miterlimit:10;" x1="934.981" y1="819.474" x2="974.139" y2="819.474"/>
	
		<line style="fill:none;stroke:#AEDFF8;stroke-width:14;stroke-miterlimit:10;" x1="917.639" y1="762.974" x2="917.639" y2="802.131"/>
	
		<line style="fill:none;stroke:#AEDFF8;stroke-width:14;stroke-miterlimit:10;" x1="917.639" y1="836.816" x2="917.639" y2="875.974"/>
</g>
<g>
	
		<line style="fill:none;stroke:#C8E09B;stroke-width:14;stroke-miterlimit:10;" x1="-284.861" y1="-103.526" x2="-265.109" y2="-103.526"/>
	
		<line style="fill:none;stroke:#C8E09B;stroke-width:14;stroke-miterlimit:10;" x1="-247.613" y1="-103.526" x2="-227.861" y2="-103.526"/>
	
		<line style="fill:none;stroke:#C8E09B;stroke-width:14;stroke-miterlimit:10;" x1="-256.361" y1="-132.026" x2="-256.361" y2="-112.274"/>
	
		<line style="fill:none;stroke:#C8E09B;stroke-width:14;stroke-miterlimit:10;" x1="-256.361" y1="-94.779" x2="-256.361" y2="-75.026"/>
</g>
<g>
	
		<line style="fill:none;stroke:#C792C1;stroke-width:14;stroke-miterlimit:10;" x1="-189.861" y1="1036.474" x2="-157.634" y2="1036.474"/>
	
		<line style="fill:none;stroke:#C792C1;stroke-width:14;stroke-miterlimit:10;" x1="-129.088" y1="1036.474" x2="-96.861" y2="1036.474"/>
	
		<line style="fill:none;stroke:#C792C1;stroke-width:14;stroke-miterlimit:10;" x1="-143.361" y1="989.974" x2="-143.361" y2="1022.201"/>
	
		<line style="fill:none;stroke:#C792C1;stroke-width:14;stroke-miterlimit:10;" x1="-143.361" y1="1050.746" x2="-143.361" y2="1082.974"/>
</g>
<circle style="opacity:0.46;fill:none;stroke:#FDB913;stroke-width:14;stroke-miterlimit:10;" cx="981.139" cy="-123.026" r="38"/>
<path style="fill:none;stroke:#F58B74;stroke-width:14;stroke-miterlimit:10;" d="M-193.861,691.974h-69c-3.314,0-6-2.686-6-6l0,0
	c0-3.314,2.686-6,6-6h69c3.314,0,6,2.686,6,6l0,0C-187.861,689.287-190.547,691.974-193.861,691.974z"/>
<path style="fill:none;stroke:#C6E09B;stroke-width:14;stroke-miterlimit:10;" d="M977.139,1080.974h-69c-3.314,0-6-2.686-6-6l0,0
	c0-3.314,2.686-6,6-6h69c3.314,0,6,2.686,6,6l0,0C983.139,1078.287,980.453,1080.974,977.139,1080.974z"/>
</svg>
