<?xml version="1.0" encoding="iso-8859-1"?>
<!-- Generator: Adobe Illustrator 22.0.1, SVG Export Plug-In . SVG Version: 6.00 Build 0)  -->
<svg version="1.1" id="Layer_1" xmlns="http://www.w3.org/2000/svg" xmlns:xlink="http://www.w3.org/1999/xlink" x="0px" y="0px"
	 viewBox="-1204 156 2339.258 648.051" style="enable-background:new -1204 156 2339.258 648.051;" xml:space="preserve">
<g>
	<g>
		<path style="fill:#606060;" d="M-654.011,798.848h-444.078v-2.716c0-28.861,23.396-52.257,52.257-52.257h339.565
			c28.86,0,52.257,23.396,52.257,52.257V798.848z"/>
		<path style="fill:#161323;" d="M-648.808,804.051h-454.484v-5.203c0-33.181,26.995-60.176,60.176-60.176h334.133
			c33.181,0,60.176,26.994,60.176,60.176V804.051z M-1092.615,793.645h433.132c-2.61-25.007-23.814-44.566-49.499-44.566h-334.133
			C-1068.802,749.079-1090.005,768.638-1092.615,793.645z"/>
	</g>
	<path style="fill:#161323;" d="M-581.188,387.43c-0.028,0-0.057,0-0.085,0h0c-4.432,0-8.024,3.23-8.024,7.214v-58.643
		c0,3.984,3.593,7.214,8.024,7.214h0c0.134,0,0.265-0.003,0.41-0.011c3.726-0.211,6.589-3.415,6.442-7.144
		c-1.969-49.945-41.741-91.59-91.943-95.812c-1.751-0.147-4.459,0.68-3.83-2.88c0.435-2.461-0.189-5.465,4.079-5.029
		c3.225,0.33,6.512,0.081,9.772,0.052c7.125-0.064,9.465-2.473,9.325-9.553c-0.678-34.148-29.808-63.075-64.377-63.169
		c-77.451-0.209-154.903-0.08-232.354-0.066c-5.633,0.001-7.623,1.715-8.973,7.327c-0.567,4.27,1.191,6.99,5.345,8.246
		c2.272,0.687,4.615,0.497,6.936,0.497c74.473,0.008,148.946,0.007,223.419,0.002c2.638,0,5.277,0.001,7.91,0.13
		c19.868,0.975,38.433,15.706,43.911,34.819c1.593,5.557,1.181,6.132-4.628,6.132c-139.947,0.007-279.894,0.006-419.841,0
		c-6.066,0-6.486-0.598-4.731-6.424c5.899-19.579,24.585-34.127,45.066-34.512c23.422-0.44,46.854-0.083,70.281-0.147
		c2.167-0.006,4.352,0.148,6.475-0.472c4.13-1.207,5.921-3.87,5.531-8.206c-1.312-5.778-3.281-7.375-9.349-7.38
		c-23.275-0.019-46.549,0.005-69.824-0.019c-5.299-0.006-10.525,0.583-15.688,1.711c-28.66,6.264-50.632,33.209-50.768,62.221
		c-0.029,6.204,2.434,8.756,8.626,8.855c3.258,0.052,6.557,0.34,9.765-0.059c4.219-0.525,4.797,1.636,5.042,5.057
		c0.29,4.042-2.642,2.522-4.378,2.865c-2.578,0.511-5.227,0.649-7.83,1.05c-42.437,6.541-78.632,43.284-82.805,85.855
		c-2.571,26.225-3.368,52.838,0.84,78.921c7.526,46.661,26.909,83.768,57.583,111.46c3.017,2.724,7.794,2.25,10.133-1.074
		c0.018-0.025,0.035-0.05,0.053-0.076l0,0c2.636-3.822,2.115-8.754-1.165-11.016l28.906,19.938
		c-3.28-2.262-8.075-0.998-10.712,2.824l0,0c-0.021,0.031-0.043,0.062-0.063,0.093c-2.521,3.744-1.271,8.854,2.605,11.167
		c11.754,7.012,24.615,13.091,38.573,18.236c23.286,8.584,47.76,10.355,72.419,9.518c4.018-0.136,7.41,0.775,10.887,2.907
		c14.329,8.785,29.671,15.36,45.956,19.544c3.685,0.946,3.927,2.263,2.868,5.594c-8.203,25.817-16.254,51.684-24.178,77.588
		c-0.862,2.816-2.16,3.889-4.987,4.304c-31.676,4.654-54.67,30.104-56.314,62.167c-0.352,6.863,2.336,9.75,9.167,9.756
		c18.154,0.015,36.309-0.1,54.462,0.072c5.175,0.049,8.273-1.909,9.365-6.963c0.133-5.605-1.167-7.071-8.008-9.011
		c-7.827-0.578-15.67-0.252-23.505-0.394c-7.975-0.146-15.962,0.499-23.952-0.326c-0.799-0.974-0.445-2.033-0.205-3.08
		c4.814-20.978,25.031-36.973,46.497-36.808c44.826,0.018,89.665,0.005,134.517-0.008c18.96-0.107,37.761,12.819,44.249,30.529
		c1.089,2.973,2.671,6,1.174,9.361c-1.476,0.572-3.043,0.326-4.583,0.326c-40.82,0.004-81.641-0.006-122.461,0.019
		c-6.982,0.004-13.967-0.229-20.948,0.189c-1.499,0.289-3.051,0.586-4.34,1.328c-2.799,1.609-5.565,3.4-4.264,7.431
		c1.477,5.84,3.219,7.331,8.903,7.332c52.462,0.015,104.924,0.018,157.386-0.002c5.996-0.002,8.708-2.903,8.603-8.956
		c-0.539-31.132-24.913-58.789-55.586-62.863c-3.347-0.445-4.835-1.649-5.961-4.997c-8.686-25.818-14.094-52.625-23.693-78.149
		c-1.253-3.332,0.616-3.524,2.776-4.071c14.337-3.633,28.173-8.796,40.726-16.519c8.059-4.958,16.122-6.614,25.387-6.379
		c32.727,0.827,63.88-6.144,92.433-22.225c57.316-32.281,90.202-81.224,97.53-146.811c0.127-1.135,0.242-2.271,0.346-3.407
		C-574.494,390.839-577.39,387.465-581.188,387.43z M-1081.955,478c-27.246-23.733-42.583-53.576-44.867-89.749
		c-0.997-15.785-1.265-31.659,0.081-47.42c1.88-22.029,19.541-39.623,41.479-42.555c3.38-0.452,4.496,0.454,4.943,3.823
		c4.648,35.021,9.312,70.042,14.259,105.022c3.312,23.413,4.709,47.214,13.728,69.536c3.309,8.191,6.875,16.238,11.512,24.949
		C-1056.609,496.046-1070.079,488.345-1081.955,478z M-635.896,409.531c-10.763,43.318-37.526,72.989-78.49,90.302
		c10.136-18.898,17.934-38.611,21.203-59.744c2.699-17.447,4.147-35.089,6.122-52.647c3.205-28.497,6.414-56.994,9.539-85.5
		c0.34-3.1,1.236-4.066,4.629-3.425c22.456,4.245,38.874,21.065,40.006,43.855C-631.777,364.768-630.403,387.423-635.896,409.531z"
		/>
	<linearGradient id="SVGID_1_" gradientUnits="userSpaceOnUse" x1="-1097.3999" y1="192.47" x2="-662.2165" y2="192.47">
		<stop  offset="0" style="stop-color:#A5A7A9"/>
		<stop  offset="1" style="stop-color:#EBEBEC"/>
	</linearGradient>
	<path style="fill:url(#SVGID_1_);" d="M-952.724,166.931c1.565,5.899,3.425,7.283,9.965,7.283
		c76.334,0.009,152.668-0.021,229.002,0.03c24.446,0.016,44.163,14.809,50.473,37.626c0.33,1.193,0.456,2.446,0.837,3.619
		c0.591,1.822,0.071,2.639-1.885,2.505c-0.927-0.063-1.861-0.018-2.792-0.018c-141.808,0-283.615,0-425.423-0.001
		c-5.439,0-5.439-0.002-4.143-5.205c5.525-22.182,25.549-38.273,48.416-38.472c23.891-0.208,47.786-0.057,71.679-0.081
		c6.148-0.006,7.965-1.414,9.545-7.221C-962.274,166.975-957.499,166.953-952.724,166.931z"/>
	<path style="fill:#999999;" d="M-810.93,691.21c19.707-0.168,42.094,17.831,45.605,36.735c0.306,1.646,0.168,3.375,0.237,5.066
		c-0.327,0.361-0.726,0.482-1.2,0.364c-1.867-0.592-3.726-0.104-5.6,0.031c-0.523-0.156-1.044-0.249-1.588-0.284
		c-46.095-0.056-92.177-0.047-138.242-0.005c-1.321,0.186-2.645,0.458-4.006,0.488c-0.612,0.013-0.929,0.344-0.331,0.177
		c0.022-0.006,0.119,0.256,0.182,0.394c-4.215,0.819-7.129,2.995-7.817,7.494c-0.303-0.008-0.59-0.081-0.86-0.22
		c-4.032-0.866-8.063-0.652-12.095-0.001c-0.406,0.228-0.812,0.456-1.216,0.675c-0.587-4.461-3.116-7.074-7.501-7.929
		c0.259-0.981,0.259-0.981-1.573-1.08c-13.22-0.019-26.419-0.079-39.608,0.023c-0.484,0.059-0.969,0.162-1.436,0.308
		c-1.811-0.251-3.628-0.641-5.451-0.038c-0.663,0.164-1.315,0.252-1.857-0.312c-0.616-3.09,1.027-5.704,1.957-8.403
		c6.574-19.081,26.062-33.649,44.577-33.484c1.294,0.778,2.724,0.437,4.091,0.438c43.215,0.019,86.429,0.019,129.644,0
		C-813.654,691.647-812.224,691.988-810.93,691.21z"/>
	<path style="fill:#999999;" d="M-936.646,741.449c3.337-2.285,7.581,0.486,10.891-1.952c0.401,0.651,0.803,1.302,1.204,1.954
		C-928.582,741.45-932.614,741.449-936.646,741.449z"/>
	<linearGradient id="SVGID_2_" gradientUnits="userSpaceOnUse" x1="-1052.8391" y1="454.6637" x2="-684.8418" y2="454.6637">
		<stop  offset="0" style="stop-color:#A5A7A9"/>
		<stop  offset="1" style="stop-color:#EBEBEC"/>
	</linearGradient>
	<path style="fill:url(#SVGID_2_);" d="M-684.842,247.989c-1.639,15.415-3.211,30.837-4.93,46.242
		c-3.251,29.129-6.426,58.268-9.938,87.366c-2.637,21.848-2.763,44.174-8.474,65.447c-18.693,69.625-63.5,113.237-133.499,130.746
		c-8.743,2.187-10.448,4.759-7.721,13.507c2.121,6.802,4.297,13.588,6.348,20.411c1.143,3.803,3.305,6.259,7.481,6.46
		c0.305,0.015,0.743-0.211,0.903-0.074c3.781,3.234,3.188,8.306,5.126,12.328c0.62,1.286,0.855,2.448-0.807,3.529
		c-3.694,2.403-3.978,5.812-2.673,9.821c3.021,9.28,5.817,18.633,8.699,27.959c0.447,1.445,1.254,2.822,0.903,4.503
		c-29.793,0-59.567,0-89.34,0c-1.764-2.276-0.276-4.472,0.303-6.592c8.296-30.374,16.497-60.773,24.749-91.159
		c1.761-6.485,1.665-6.47-4.687-7.948c-29.853-6.949-57.589-18.552-81.366-38.272c-28.668-23.777-45.837-54.251-51.179-91.145
		c-5.133-35.449-9.798-70.965-14.672-106.451c-4.367-31.796-8.599-63.61-13.001-95.401c-0.257-1.854-0.526-3.709,0.654-5.393
		c1.705-1.149,3.558-0.754,5.4-0.524c0.519,0.2,0.974,0.496,1.379,0.878c0.409,0.395,0.863,0.719,1.383,0.955
		c2.308,0.567,4.647,0.314,6.965,0.315c112.502,0.013,225.005,0.012,337.507,0.012c1.241,0,2.483-0.003,3.724,0.002
		c8.747,0.032,10.856,2.287,10.41,11.151C-685.22,247.162-684.998,247.558-684.842,247.989z"/>
	<path style="fill:#999999;" d="M-1141.451,337.469c0.177,0.274,0.147,0.523-0.089,0.747c-1.468,3.36-1.359,6.952-1.387,10.483
		c-0.082,10.328-0.027,20.656-0.016,30.985c0.016-10.755-0.004-21.511,0.046-32.266c0.004-0.927-0.613-2.283,1.047-2.622
		c0.053,11.787,0.068,23.574,0.166,35.36c0.552,65.892,44.811,122.371,108.674,138.708c1.35,0.345,2.707,0.666,4.061,0.999
		c3.263,1.565,4.676,4.823,6.767,7.447c6.196,7.772,13.786,14.19,20.596,21.363c1.02,1.075,3.065,1.981,2.381,3.619
		c-0.715,1.711-2.654,0.874-4.176,0.654c-2.884-0.416-5.852,0.439-8.711-0.523c-15.547-1.927-31.017-4.367-45.632-10.255
		c-64.058-25.809-101.631-72.699-111.918-141.177c-0.576-3.833-1.094-7.669-0.741-11.561c0.62-0.926,0.555-2.04,0.837-3.062
		c0.104-16.538,0.105-33.074-0.001-49.607c-0.122-0.816-0.356-1.593-0.844-2.275c1.246-23.151,11.114-42.213,27.95-57.732
		c14.362-13.237,31.57-20.296,50.966-22.243c3.315-0.333,4.923,0.159,5.22,4.084c0.537,7.081,1.612,14.144,2.894,21.135
		c0.576,3.137-0.226,4.052-3.228,4.338c-7.282,0.694-14.261,2.558-20.623,6.337c-4.952,4.25-10.512,7.657-15.826,11.405l0.02-0.022
		c-3.32,3.537-5.239,8.201-9.103,11.299c-4.562,6.121-6.488,13.35-8.619,20.493
		C-1141.484,334.782-1141.567,336.107-1141.451,337.469z"/>
	<path style="fill:#999999;" d="M-589.147,380.126c0.673,24.791-4.212,48.598-14.976,70.774
		c-30.628,63.097-81.188,97.037-151.322,101.522c-0.768,0.049-1.542,0.006-2.25,0.006c-0.536-0.823,0.064-1.18,0.49-1.549
		c10.243-8.859,19.607-18.554,27.782-29.362c1.216-1.608,2.717-2.228,4.588-2.785c54.463-16.203,89.185-51.608,103.383-106.774
		c2.48-9.635,3.502-19.52,3.477-29.495c-0.031-12.416,0.044-24.832-0.016-37.247c-0.15-30.65-22.98-56.824-53.328-61.062
		c-2.753-0.384-4.161-0.95-3.688-4.221c1.087-7.517,1.876-15.08,2.632-22.64c0.214-2.142,0.892-2.941,3.151-2.753
		c44.411,3.707,76.621,38.64,80.005,78.571c0.065,0.763-0.046,1.542-0.075,2.313c-1.089,2.523,0.039,5.243-0.69,7.8
		c-0.396,11.854-0.292,23.705-0.056,35.556C-589.853,379.303-589.555,379.751-589.147,380.126z"/>
	<path style="fill:#FEFEFE;" d="M-1053.045,233.898c1.701,13.055,3.351,26.117,5.113,39.164c3.836,28.41,7.684,56.817,11.609,85.215
		c4.221,30.541,7.135,61.348,13.124,91.541c9.879,49.804,40.993,83.297,86.208,104.583c15.084,7.101,30.871,12.13,47.155,15.517
		c3.698,0.769,3.903,2.059,3.025,5.254c-9.069,33.017-17.999,66.072-26.961,99.119c-0.161,0.593-0.236,1.209-0.35,1.814
		c-6.961,0-13.922,0-21.273,0c4.408-14.21,8.752-28.236,13.112-42.257c4.549-14.631,9.135-29.251,13.66-43.89
		c2.33-7.539,0.427-10.361-7.234-12.287c-70.011-17.6-113.95-61.376-129.942-131.826c-4.787-21.087-6.214-42.939-9.15-64.445
		c-5.097-37.329-10.172-74.66-15.254-111.991c-1.548-11.368-3.005-22.75-4.7-34.096c-0.347-2.325,0.062-3.073,2.414-3.005
		c6.351,0.186,12.705,0.231,19.058,0.332C-1053.109,232.999-1052.649,233.317-1053.045,233.898z"/>
	<linearGradient id="SVGID_3_" gradientUnits="userSpaceOnUse" x1="-1053.4349" y1="235.9161" x2="-684.4262" y2="235.9161">
		<stop  offset="0" style="stop-color:#A5A7A9"/>
		<stop  offset="1" style="stop-color:#EBEBEC"/>
	</linearGradient>
	<path style="fill:url(#SVGID_3_);" d="M-1053.045,233.898c-0.131-0.42-0.262-0.84-0.39-1.259c1.541-0.092,3.079-0.267,4.617-0.267
		c119.985-0.014,239.971-0.014,359.956-0.015c5.05,0,5.05,0,3.602,7.119c-3.28-5.068-8.365-4.285-13.333-4.283
		c-113.449,0.037-226.898,0.034-340.347-0.005c-2.874-0.001-5.944,0.774-8.542-1.284
		C-1049.337,233.902-1051.191,233.9-1053.045,233.898z"/>
	<path style="fill:#161323;" d="M-1012.089,552.421c4,0,8.001,0,12.87,0c-11.178-10.263-21.613-20.382-29.728-32.56
		c3.416,0.062,4.847,2.959,7.196,5.018c1.67,1.465,1.319,7.537,6.662,4.544c1.427-0.799,3.352,1.652,4.485,3.495
		c-1.873,1.373-2.347-1.622-4.089-1.019c0.758,1.97,2.245,3.75,3.908,4.224c5.527,1.574,7.307,6.873,10.992,10.232
		c0.437,0.399,0.565,1.404,0.99,1.509c5.847,1.453,2.406,3.505,0.536,5.747c-2.191,2.626-2.055,2.719-4.518,0.421
		c-1.022-0.954-2.344-0.544-3.548-0.697C-1008.26,553.09-1010.393,554.098-1012.089,552.421z"/>
	<path style="fill:#999999;" d="M-915.874,734.175c-0.292-0.086-0.633-0.105-0.866-0.273c-0.453-0.326-0.445-0.715,0.176-0.758
		c1.062-0.073,2.132-0.043,3.199-0.056c1.296-0.773,2.726-0.431,4.093-0.431c44.456-0.019,88.911-0.019,133.367,0
		c1.367,0.001,2.797-0.341,4.093,0.431c0.313,0,0.627,0.001,0.94,0.001c1.551-0.692,3.101-0.695,4.651,0.001
		c0.378-0.027,0.757-0.053,1.135-0.08c0.745,0.266,1.032,0.932,0.317,1.233c-0.799,0.337-1.815,0.201-2.736,0.201
		c-48.847,0.004-97.694,0.001-146.54-0.013C-914.656,734.432-915.265,734.265-915.874,734.175z"/>
	<path style="fill:#999999;" d="M-810.93,691.21c-1.389,1.486-3.203,0.875-4.831,0.876c-42.721,0.033-85.442,0.033-128.164,0
		c-1.628-0.001-3.442,0.611-4.831-0.876c1.691-0.122,3.382-0.351,5.074-0.351c42.559-0.02,85.119-0.02,127.678,0
		C-814.312,690.859-812.621,691.087-810.93,691.21z"/>
	<path style="fill:#161323;" d="M-1123.036,301.808c4.408-5.005,9.681-8.811,15.826-11.405c-0.164,0.729-0.089,1.863-0.53,2.123
		c-4.943,2.916-8.157,7.202-10.152,13.134C-1117.205,299.958-1120.332,301.222-1123.036,301.808z"/>
	<path style="fill:#999999;" d="M-995.289,733.096c0.609-0.003,1.219-0.006,1.828-0.009c1.548-0.691,3.097-0.69,4.645,0
		c0.316,0,0.632-0.001,0.948-0.001c9.051-0.989,18.13-0.323,27.194-0.389c5.205-0.038,10.446-0.622,15.631,0.392
		c0.35,0.161,0.701,0.321,1.051,0.482c-0.458,0.208-0.915,0.416-1.372,0.624c-16.069,0.082-32.138,0.166-48.207,0.24
		C-994.463,734.439-995.557,734.619-995.289,733.096z"/>
	<path style="fill:#999999;" d="M-1141.85,344.795c-1.414,5.002-0.44,10.106-0.579,15.157c-0.19,6.928-0.048,13.865-0.048,21.225
		c-1.508-1.369-0.887-2.722-0.894-3.851c-0.063-11.283-0.053-22.566-0.024-33.85c0.005-1.938-0.558-4.143,1.854-5.261
		C-1141.644,340.409-1141.747,342.602-1141.85,344.795z"/>
	<path style="fill:#999999;" d="M-589.147,380.126c-0.352-0.002-0.704-0.005-1.055-0.007c-1.01-10.896-0.196-21.817-0.424-32.724
		c-0.031-1.506-0.397-3.086,0.427-4.528c0.411-2.467-0.913-5.146,0.906-7.441C-588.527,350.323-588.733,365.225-589.147,380.126z"/>
	<path style="fill:#161323;" d="M-1132.12,313.085c2.291-4.365,5.252-8.191,9.103-11.299c0.8,1.297,0.583,2.198-0.849,2.954
		c-1.865,0.985-2.601,2.237-2.46,4.77C-1126.129,313.065-1129.246,313.357-1132.12,313.085z"/>
	<path style="fill:#161323;" d="M-1017.995,526.586c-0.927-0.616-1.663-1.612-1.028-2.277c0.918-0.961,1.162,0.231,1.267,0.927
		C-1017.695,525.642-1017.897,526.088-1017.995,526.586z"/>
	<path style="fill:#FEFEFC;" d="M-1010.134,203.281c-11.793,0.001-23.587,0.019-35.38-0.007c-5.823-0.013-8.914-2.524-8.944-7.153
		c-0.03-4.602,3.053-7.218,8.864-7.228c23.432-0.039,46.864,0.004,70.295-0.03c3.632-0.005,6.478,1.227,7.675,4.785
		c1.164,3.46-0.03,6.238-2.858,8.629c-1.427,1.206-2.809,0.981-4.272,0.985C-986.547,203.294-998.34,203.281-1010.134,203.281z"/>
	<path style="fill:#EAEAEA;" d="M-927.338,720.035c-7.914,0-15.828,0.042-23.741-0.014c-5.571-0.04-8.847-2.852-8.823-7.399
		c0.024-4.521,3.288-7.273,8.902-7.29c15.828-0.049,31.656-0.055,47.483-0.03c5.938,0.01,9.104,2.766,8.994,7.643
		c-0.102,4.529-3.239,7.025-9.073,7.061c-7.914,0.05-15.828,0.012-23.742,0.012C-927.338,720.024-927.338,720.03-927.338,720.035z"
		/>
	<path style="fill:#999999;" d="M-771.813,733.088c-47.184,0-94.368,0-141.552,0c1.374-1.519,3.194-0.899,4.819-0.9
		c43.971-0.033,87.943-0.033,131.914,0C-775.007,732.189-773.187,731.569-771.813,733.088z"/>
	<path style="fill:#FEFEFD;" d="M-1008.31,289.495c0.322,6.77-1.971,9.904-6.253,10.376c-3.927,0.433-7.174-2.14-7.873-6.793
		c-1.885-12.545-3.649-25.109-5.295-37.687c-0.554-4.233,2.352-7.79,6.301-8.355c3.96-0.567,7.282,2.029,8.236,6.454
		c0.097,0.451,0.086,0.925,0.149,1.385C-1011.391,266.981-1009.734,279.088-1008.31,289.495z"/>
	<path style="fill:#EAEAEA;" d="M-1148.987,371.092c-0.005,6.666,0.029,13.332-0.015,19.997c-0.036,5.498-2.84,8.67-7.494,8.616
		c-4.495-0.052-7.284-3.127-7.306-8.331c-0.057-13.486-0.08-26.973-0.016-40.46c0.029-6.03,2.656-9.037,7.576-9.078
		c4.809-0.039,7.217,2.995,7.251,9.258C-1148.955,357.761-1148.982,364.426-1148.987,371.092z"/>
	<path style="fill:#EAEAEA;" d="M-610.694,363.823c-0.004-6.975-0.059-13.952,0.014-20.926c0.056-5.302,2.733-8.359,7.197-8.468
		c4.498-0.111,7.525,2.825,7.579,8.121c0.144,14.104,0.107,28.212-0.011,42.317c-0.039,4.672-3.174,7.486-7.704,7.464
		c-4.04-0.02-6.958-2.996-7.04-7.581C-610.781,377.776-610.69,370.798-610.694,363.823z"/>
	<path style="fill:#999999;" d="M-617.074,387.256c0-15.625,0-31.25,0-46.876c0.154-0.001,0.307-0.003,0.461-0.004
		c0,15.69,0,31.38,0,47.069C-616.767,387.383-616.92,387.319-617.074,387.256z"/>
	<path style="fill:#999999;" d="M-590.2,342.867c-0.001,12.417-0.002,24.835-0.002,37.252c-0.261-0.37-0.748-0.739-0.749-1.109
		c-0.04-11.678-0.039-23.356,0.001-35.034C-590.949,343.605-590.461,343.236-590.2,342.867z"/>
	<linearGradient id="SVGID_4_" gradientUnits="userSpaceOnUse" x1="-822.2455" y1="225.0635" x2="-795.2742" y2="225.0635">
		<stop  offset="0" style="stop-color:#A5A7A9"/>
		<stop  offset="1" style="stop-color:#EBEBEC"/>
	</linearGradient>
	<path style="fill:url(#SVGID_4_);" d="M-802.488,225.064L-802.488,225.064c0-3.984,3.23-7.214,7.214-7.214h-26.971
		c3.984,0,7.214,3.23,7.214,7.214v0c0,3.984-3.23,7.214-7.214,7.214h26.971C-799.258,232.278-802.488,229.048-802.488,225.064z"/>
	<path style="fill:#FFFFFF;" d="M-1061.604,386.921L-1061.604,386.921c4.053-0.551,7.781,2.203,8.326,6.15l-6.789-49.135
		c0.545,3.947-2.298,7.594-6.351,8.144v0c-4.053,0.551-7.78-2.203-8.326-6.15l6.788,49.135
		C-1068.5,391.118-1065.657,387.471-1061.604,386.921z"/>
	<circle style="fill:#161323;" cx="-1063.703" cy="371.285" r="7.239"/>
	<path style="fill:#161323;" d="M-581.175,378.524L-581.175,378.524c-4.118,0-7.457-3.338-7.457-7.457v-8.162
		c0-4.118,3.338-7.457,7.457-7.457l0,0c4.118,0,7.457,3.338,7.457,7.457v8.162C-573.719,375.186-577.057,378.524-581.175,378.524z"
		/>
	<path style="fill:#FEFEFD;" d="M-1009.043,329.98L-1009.043,329.98c-3.73,0.651-7.281-1.844-7.933-5.574l-1.767-10.115
		c-0.651-3.73,1.844-7.281,5.574-7.933l0,0c3.73-0.651,7.281,1.844,7.933,5.574l1.767,10.115
		C-1002.818,325.777-1005.313,329.329-1009.043,329.98z"/>
	<g>
		<path style="fill:#999999;" d="M-831.143,459.352l-40.706-21.123c-2.299-1.193-5.038-1.178-7.324,0.039l-40.478,21.558
			c-5.757,3.066-12.531-1.8-11.463-8.235l7.51-45.241c0.424-2.555-0.436-5.156-2.301-6.954l-33.011-31.835
			c-4.695-4.528-2.16-12.474,4.29-13.447l45.348-6.838c2.561-0.386,4.769-2.008,5.902-4.337l20.076-41.233
			c2.855-5.865,11.196-5.909,14.114-0.076l20.516,41.015c1.159,2.317,3.383,3.915,5.949,4.273l45.419,6.351
			c6.46,0.903,9.08,8.822,4.434,13.4l-32.668,32.187c-1.845,1.818-2.677,4.427-2.226,6.978l7.995,45.158
			C-818.631,457.417-825.353,462.356-831.143,459.352z"/>
		<path style="fill:#161323;" d="M-850.667,456.84L-850.667,456.84c-2.447-1.413-3.285-4.541-1.872-6.987l1.093-1.893
			c1.412-2.447,4.541-3.285,6.987-1.872l0,0c2.447,1.413,3.285,4.541,1.872,6.987l-1.093,1.893
			C-845.093,457.414-848.221,458.253-850.667,456.84z"/>
		<g>
			<path style="fill:#161323;" d="M-856.811,438.956l-10.003-5.259c-4.862-2.556-10.668-2.557-15.53,0l-36.251,19.058
				c-1.996,1.048-3.624,0.135-4.231-0.306c-0.607-0.441-1.98-1.708-1.599-3.93l6.923-40.366c0.928-5.414-0.866-10.935-4.799-14.77
				l-29.327-28.587c-1.614-1.573-1.249-3.405-1.017-4.119c0.232-0.714,1.013-2.411,3.244-2.735l40.529-5.889
				c5.436-0.79,10.133-4.203,12.564-9.129l3.812-7.723c0.946-1.917,0.992-4.2-0.039-6.073c-0.609-1.106-1.529-2.022-2.716-2.595l0,0
				c-1.829-0.883-3.901-0.764-5.676,0.139c-1.35,0.686-2.399,1.849-3.07,3.207l-3.671,7.438c-0.585,1.186-1.716,2.008-3.025,2.198
				l-40.529,5.889c-6.332,0.92-11.493,5.272-13.471,11.357c-1.977,6.085-0.359,12.639,4.223,17.106l29.327,28.586
				c0.947,0.924,1.379,2.253,1.156,3.557l-6.923,40.365c-1.082,6.306,1.462,12.56,6.638,16.321c2.925,2.125,6.347,3.205,9.792,3.205
				c2.652,0,5.318-0.64,7.781-1.935l36.228-19.046c1.185-0.623,2.601-0.623,3.786,0l9.454,4.97c1.643,0.863,3.57,1.125,5.34,0.569
				c1.593-0.5,2.968-1.562,3.789-3.099v0c0.288-0.539,0.489-1.103,0.609-1.677C-852.929,442.979-854.363,440.243-856.811,438.956z"
				/>
			<path style="fill:#161323;" d="M-788.688,373.868c4.582-4.466,6.2-11.02,4.223-17.106c-1.977-6.085-7.139-10.437-13.471-11.357
				l-40.529-5.889c-1.309-0.19-2.44-1.012-3.026-2.199l-17.973-36.417c-2.95-5.976-9.086-9.843-15.746-9.599
				c-6.143,0.226-11.595,3.741-14.333,9.29l-5.37,10.881c-0.945,1.916-0.99,4.197,0.043,6.067c0.609,1.103,1.527,2.016,2.712,2.588
				l0,0c2.292,1.107,4.965,0.639,6.958-0.969c0.71-0.573,1.269-1.312,1.673-2.13l5.345-10.829c0.998-2.022,2.852-2.24,3.603-2.24
				c0.751,0,2.606,0.218,3.603,2.24l18.125,36.725c2.431,4.926,7.128,8.339,12.564,9.129l40.529,5.889
				c2.231,0.324,3.012,2.021,3.244,2.735c0.232,0.714,0.598,2.545-1.017,4.119l-29.328,28.587c-3.934,3.834-5.727,9.356-4.799,14.77
				l6.923,40.366c0.381,2.222-0.991,3.488-1.599,3.93c-0.607,0.441-2.236,1.355-4.232,0.306l-0.202-0.106
				c-1.751-0.921-3.847-1.081-5.652-0.269c-1.266,0.57-2.342,1.523-3.028,2.809l0,0c-0.836,1.567-0.942,3.339-0.438,4.967
				c0.49,1.587,1.652,2.88,3.122,3.653h0c5.899,3.101,13.137,2.622,18.381-1.491c4.836-3.793,7.18-9.842,6.134-15.939l-6.923-40.366
				c-0.224-1.304,0.209-2.633,1.156-3.557L-788.688,373.868z"/>
		</g>
	</g>
	<g>
		<line style="fill:#161323;" x1="-1040.822" y1="798.848" x2="-626.411" y2="798.848"/>
		<path style="fill:#161323;" d="M-631.615,804.051h-409.207v-10.406h409.207c2.874,0,5.203,2.33,5.203,5.203l0,0
			C-626.411,801.722-628.741,804.051-631.615,804.051z"/>
	</g>
	<g>
		<line style="fill:#161323;" x1="-616.005" y1="798.622" x2="-595.645" y2="798.622"/>
		<path style="fill:#161323;" d="M-600.848,803.825h-9.954c-2.874,0-5.203-2.33-5.203-5.203l0,0c0-2.874,2.33-5.203,5.203-5.203
			h9.954c2.874,0,5.203,2.33,5.203,5.203l0,0C-595.645,801.495-597.974,803.825-600.848,803.825z"/>
	</g>
</g>
<polygon style="fill:none;stroke:#A6C6E8;stroke-width:9;stroke-miterlimit:10;" points="883.075,656.298 862.049,661.081 
	851.002,642.561 865.202,626.332 885.025,634.822 "/>
<g>
	<path style="fill:#2D4961;" d="M-205.076,351.743c11.331-9.116,17.92-22.878,17.912-37.424v-57.656
		c0-17.665-14.322-31.986-31.987-31.986h-223.906c-17.665,0-31.987,14.322-31.987,31.986v57.656
		c-0.008,14.546,6.581,28.308,17.912,37.424l110.034,88.443v18.312v0.48l-34.865,74.209l-77.567,11.835
		c-9.836,1.407-16.673,10.523-15.266,20.359c0.536,3.742,2.239,7.229,4.87,9.948l56.616,58.055l-13.754,82.205
		c-1.591,9.812,5.062,19.056,14.874,20.647c3.982,0.648,8.069-0.064,11.595-2.015l69.491-38.224l69.171,38.224
		c8.58,5.006,19.6,2.103,24.606-6.477c2.135-3.67,2.911-7.973,2.183-12.155l-13.754-82.205l56.616-58.055
		c6.917-7.133,6.749-18.52-0.384-25.445c-2.671-2.591-6.085-4.294-9.772-4.862l-77.567-11.835l-35.105-74.289v-0.48v-18.232
		L-205.076,351.743z"/>
	<path style="fill:#123247;" d="M-203.157,272.657v46.061c-0.016,7.285-3.343,14.17-9.036,18.712l-86.923,69.651
		c-10.092,8.029-15.977,20.215-15.993,33.106l0,0l110.034-88.443c11.331-9.116,17.92-22.878,17.912-37.424v-57.656
		C-195.992,256.663-203.157,263.82-203.157,272.657z"/>
	<path style="fill:#44637F;" d="M-443.056,224.677c-17.665,0-31.987,14.322-31.987,31.986v55.976l0,0
		c8.836,0,15.993-7.157,15.993-15.993v-39.983c0-8.836,7.157-15.993,15.993-15.993h207.912c8.836,0,15.993-7.157,15.993-15.993
		H-443.056z"/>
	<path style="fill:#123247;" d="M-248.898,633.384l56.616-58.055c4.718-4.838,6.317-11.915,4.158-18.312
		c-0.36-0.888-0.784-1.743-1.279-2.559c-4.062,0.4-7.909,2.015-11.035,4.638l-45.341,46.46c-7.085,7.277-10.292,17.489-8.636,27.508
		l10.795,66.212c1.591,9.812-5.062,19.056-14.874,20.647c-3.982,0.648-8.069-0.064-11.595-2.015l-53.657-29.428
		c-9.732-5.47-21.615-5.47-31.347,0l-53.258,29.588c-0.736,0.36-1.519,0.624-2.319,0.8c-5.614,1.583-8.876,7.421-7.285,13.026
		c0.232,0.808,0.552,1.591,0.968,2.327l0,0c5.246,2.799,11.547,2.799,16.793,0l69.091-38.224l69.171,38.224
		c8.58,5.006,19.6,2.103,24.606-6.477c2.135-3.67,2.911-7.973,2.183-12.155L-248.898,633.384z"/>
	<polygon style="fill:#5FD2FF;" points="-331.103,659.453 -390.518,692.32 -379.163,622.589 -428.022,572.53 -360.531,562.214 
		-331.103,499.521 -301.675,562.214 -234.184,572.53 -283.043,622.589 -271.688,692.32 	"/>
	<polygon style="fill:#78E6FF;" points="-351.574,575.249 -323.586,515.594 -331.103,499.521 -360.531,562.214 -428.022,572.53 
		-415.787,585.085 	"/>
	<polygon style="fill:#69B2F9;" points="-234.184,572.53 -252.016,569.811 -291.999,610.834 -280.644,680.485 -340.059,647.698 
		-387.479,673.847 -390.518,692.32 -331.103,659.453 -271.688,692.32 -283.043,622.589 	"/>
	<path style="fill:#3689C9;" d="M-437.058,326.794c-3.79-3.031-5.997-7.621-5.997-12.475v-57.656h223.906v57.656
		c0,4.854-2.207,9.444-5.997,12.475l-105.955,85.164L-437.058,326.794z"/>
	<g>
		<polygon style="fill:#E2E5E7;" points="-259.133,354.142 -259.133,272.657 -291.12,272.657 -291.12,379.811 		"/>
		<polygon style="fill:#E2E5E7;" points="-371.086,379.811 -371.086,272.657 -403.073,272.657 -403.073,354.142 		"/>
		<polygon style="fill:#E2E5E7;" points="-347.096,399.083 -331.103,411.958 -315.11,399.083 -315.11,272.657 -347.096,272.657 		
			"/>
	</g>
	<rect x="-443.08" y="256.663" style="fill:#4C9FD7;" width="223.906" height="15.993"/>
	<g>
		<rect x="-403.097" y="256.663" style="fill:#F1F2F2;" width="31.987" height="15.993"/>
		<rect x="-347.12" y="256.663" style="fill:#F1F2F2;" width="31.987" height="15.993"/>
		<rect x="-291.144" y="256.663" style="fill:#F1F2F2;" width="31.987" height="15.993"/>
	</g>
	<path style="fill:#44637F;" d="M-347.096,440.586v17.912v0.48l-34.865,74.209l-77.567,11.835
		c-9.836,1.407-16.673,10.524-15.266,20.359c0.536,3.742,2.239,7.229,4.87,9.948l2.879,3.039
		c0.104-8.732,6.549-16.097,15.194-17.353l61.334-9.356c10.308-1.463,19.256-7.845,23.99-17.113l31.267-61.974
		c2.719-5.294,4.142-11.163,4.158-17.113l0,0c0-8.213-6.661-14.874-14.874-14.874l0,0H-347.096z"/>
</g>
<g>
	<path style="fill:#2D4961;" d="M212.591,351.743c11.331-9.116,17.92-22.878,17.912-37.424v-57.656
		c0-17.665-14.322-31.986-31.987-31.986H-25.389c-17.665,0-31.987,14.322-31.987,31.986v57.656
		c-0.008,14.546,6.581,28.308,17.912,37.424L70.57,440.186v18.312v0.48l-34.865,74.209l-77.567,11.835
		c-9.836,1.407-16.673,10.523-15.266,20.359c0.536,3.742,2.239,7.229,4.87,9.948l56.616,58.055L-9.396,715.59
		c-1.591,9.812,5.062,19.056,14.874,20.647c3.982,0.648,8.069-0.064,11.595-2.015l69.491-38.224l69.171,38.224
		c8.58,5.006,19.6,2.103,24.606-6.477c2.135-3.67,2.911-7.973,2.183-12.155l-13.754-82.205l56.616-58.055
		c6.917-7.133,6.749-18.52-0.384-25.445c-2.671-2.591-6.085-4.294-9.772-4.862l-77.567-11.835l-35.105-74.289v-0.48v-18.232
		L212.591,351.743z"/>
	<path style="fill:#123247;" d="M214.51,272.657v46.061c-0.016,7.285-3.343,14.17-9.036,18.712L118.55,407.08
		c-10.092,8.029-15.977,20.215-15.993,33.106l0,0l110.034-88.443c11.331-9.116,17.92-22.878,17.912-37.424v-57.656
		C221.675,256.663,214.51,263.82,214.51,272.657z"/>
	<path style="fill:#44637F;" d="M-25.389,224.677c-17.665,0-31.987,14.322-31.987,31.986v55.976l0,0
		c8.836,0,15.993-7.157,15.993-15.993v-39.983c0-8.836,7.157-15.993,15.993-15.993h207.912c8.836,0,15.993-7.157,15.993-15.993
		H-25.389z"/>
	<path style="fill:#123247;" d="M168.769,633.384l56.616-58.055c4.718-4.838,6.317-11.915,4.158-18.312
		c-0.36-0.888-0.784-1.743-1.279-2.559c-4.062,0.4-7.909,2.015-11.035,4.638l-45.341,46.46c-7.085,7.277-10.292,17.489-8.636,27.508
		l10.795,66.212c1.591,9.812-5.062,19.056-14.874,20.647c-3.982,0.648-8.069-0.064-11.595-2.015l-53.657-29.428
		c-9.732-5.47-21.615-5.47-31.347,0L9.316,718.069c-0.736,0.36-1.519,0.624-2.319,0.8c-5.614,1.583-8.876,7.421-7.285,13.026
		c0.232,0.808,0.552,1.591,0.968,2.327l0,0c5.246,2.799,11.547,2.799,16.793,0l69.091-38.224l69.171,38.224
		c8.58,5.006,19.6,2.103,24.606-6.477c2.135-3.67,2.911-7.973,2.183-12.155L168.769,633.384z"/>
	<polygon style="fill:#29FF60;" points="86.564,659.453 27.149,692.32 38.504,622.589 -10.355,572.53 57.136,562.214 
		86.564,499.521 115.991,562.214 183.483,572.53 134.623,622.589 145.979,692.32 	"/>
	<polygon style="fill:#7DFFB2;" points="66.092,575.249 94.081,515.594 86.564,499.521 57.136,562.214 -10.355,572.53 
		1.879,585.085 	"/>
	<polygon style="fill:#18D31C;" points="183.483,572.53 165.65,569.811 125.667,610.834 137.022,680.485 77.607,647.698 
		30.187,673.847 27.149,692.32 86.564,659.453 145.979,692.32 134.623,622.589 	"/>
	<path style="fill:#3689C9;" d="M-19.392,326.794c-3.79-3.031-5.997-7.621-5.997-12.475v-57.656h223.906v57.656
		c0,4.854-2.207,9.444-5.997,12.475L86.564,411.958L-19.392,326.794z"/>
	<g>
		<polygon style="fill:#E2E5E7;" points="158.533,354.142 158.533,272.657 126.547,272.657 126.547,379.811 		"/>
		<polygon style="fill:#E2E5E7;" points="46.581,379.811 46.581,272.657 14.594,272.657 14.594,354.142 		"/>
		<polygon style="fill:#E2E5E7;" points="70.57,399.083 86.564,411.958 102.557,399.083 102.557,272.657 70.57,272.657 		"/>
	</g>
	<rect x="-25.413" y="256.663" style="fill:#4C9FD7;" width="223.906" height="15.993"/>
	<g>
		<rect x="14.57" y="256.663" style="fill:#F1F2F2;" width="31.987" height="15.993"/>
		<rect x="70.546" y="256.663" style="fill:#F1F2F2;" width="31.987" height="15.993"/>
		<rect x="126.523" y="256.663" style="fill:#F1F2F2;" width="31.987" height="15.993"/>
	</g>
	<path style="fill:#44637F;" d="M70.57,440.586v17.912v0.48l-34.865,74.209l-77.567,11.835
		c-9.836,1.407-16.673,10.524-15.266,20.359c0.536,3.742,2.239,7.229,4.87,9.948l2.879,3.039
		c0.104-8.732,6.549-16.097,15.194-17.353l61.334-9.356c10.308-1.463,19.256-7.845,23.99-17.113l31.267-61.974
		c2.719-5.294,4.142-11.163,4.158-17.113l0,0c0-8.213-6.661-14.874-14.874-14.874l0,0H70.57z"/>
</g>
<g>
	<path style="fill:#2D4961;" d="M630.257,351.743c11.331-9.116,17.92-22.878,17.912-37.424v-57.656
		c0-17.665-14.322-31.986-31.987-31.986H392.278c-17.665,0-31.987,14.322-31.987,31.986v57.656
		c-0.008,14.546,6.581,28.308,17.912,37.424l110.034,88.443v18.312v0.48l-34.865,74.209l-77.567,11.835
		c-9.836,1.407-16.673,10.523-15.266,20.359c0.536,3.742,2.239,7.229,4.87,9.948l56.616,58.055l-13.754,82.205
		c-1.591,9.812,5.062,19.056,14.874,20.647c3.982,0.648,8.069-0.064,11.595-2.015l69.491-38.224l69.171,38.224
		c8.58,5.006,19.6,2.103,24.606-6.477c2.135-3.67,2.911-7.973,2.183-12.155l-13.754-82.205l56.616-58.055
		c6.917-7.133,6.749-18.52-0.384-25.445c-2.671-2.591-6.085-4.294-9.772-4.862l-77.567-11.835l-35.105-74.289v-0.48v-18.232
		L630.257,351.743z"/>
	<path style="fill:#123247;" d="M632.176,272.657v46.061c-0.016,7.285-3.343,14.17-9.036,18.712l-86.923,69.651
		c-10.092,8.029-15.977,20.215-15.993,33.106l0,0l110.034-88.443c11.331-9.116,17.92-22.878,17.912-37.424v-57.656
		C639.341,256.663,632.176,263.82,632.176,272.657z"/>
	<path style="fill:#44637F;" d="M392.278,224.677c-17.665,0-31.987,14.322-31.987,31.986v55.976l0,0
		c8.836,0,15.993-7.157,15.993-15.993v-39.983c0-8.836,7.157-15.993,15.993-15.993H600.19c8.836,0,15.993-7.157,15.993-15.993
		H392.278z"/>
	<path style="fill:#123247;" d="M586.436,633.384l56.616-58.055c4.718-4.838,6.317-11.915,4.158-18.312
		c-0.36-0.888-0.784-1.743-1.279-2.559c-4.062,0.4-7.909,2.015-11.035,4.638l-45.341,46.46c-7.085,7.277-10.292,17.489-8.636,27.508
		l10.795,66.212c1.591,9.812-5.062,19.056-14.874,20.647c-3.982,0.648-8.069-0.064-11.595-2.015l-53.657-29.428
		c-9.732-5.47-21.615-5.47-31.347,0l-53.258,29.588c-0.736,0.36-1.519,0.624-2.319,0.8c-5.614,1.583-8.876,7.421-7.285,13.026
		c0.232,0.808,0.552,1.591,0.968,2.327l0,0c5.246,2.799,11.547,2.799,16.793,0l69.091-38.224l69.171,38.224
		c8.58,5.006,19.6,2.103,24.606-6.477c2.135-3.67,2.911-7.973,2.183-12.155L586.436,633.384z"/>
	<polygon style="fill:#FFCB5B;" points="504.23,659.453 444.815,692.32 456.171,622.589 407.311,572.53 474.803,562.214 
		504.23,499.521 533.658,562.214 601.149,572.53 552.29,622.589 563.645,692.32 	"/>
	<polygon style="fill:#FFDB6F;" points="483.759,575.249 511.747,515.594 504.23,499.521 474.803,562.214 407.311,572.53 
		419.546,585.085 	"/>
	<polygon style="fill:#F7B84E;" points="601.149,572.53 583.317,569.811 543.334,610.834 554.689,680.485 495.274,647.698 
		447.854,673.847 444.815,692.32 504.23,659.453 563.645,692.32 552.29,622.589 	"/>
	<path style="fill:#3689C9;" d="M398.275,326.794c-3.79-3.031-5.997-7.621-5.997-12.475v-57.656h223.906v57.656
		c0,4.854-2.207,9.444-5.997,12.475L504.23,411.958L398.275,326.794z"/>
	<g>
		<polygon style="fill:#E2E5E7;" points="576.2,354.142 576.2,272.657 544.214,272.657 544.214,379.811 		"/>
		<polygon style="fill:#E2E5E7;" points="464.247,379.811 464.247,272.657 432.261,272.657 432.261,354.142 		"/>
		<polygon style="fill:#E2E5E7;" points="488.237,399.083 504.23,411.958 520.224,399.083 520.224,272.657 488.237,272.657 		"/>
	</g>
	<rect x="392.254" y="256.663" style="fill:#4C9FD7;" width="223.906" height="15.993"/>
	<g>
		<rect x="432.237" y="256.663" style="fill:#F1F2F2;" width="31.987" height="15.993"/>
		<rect x="488.213" y="256.663" style="fill:#F1F2F2;" width="31.987" height="15.993"/>
		<rect x="544.19" y="256.663" style="fill:#F1F2F2;" width="31.987" height="15.993"/>
	</g>
	<path style="fill:#44637F;" d="M488.237,440.586v17.912v0.48l-34.865,74.209l-77.567,11.835
		c-9.836,1.407-16.673,10.524-15.266,20.359c0.536,3.742,2.239,7.229,4.87,9.948l2.879,3.039
		c0.104-8.732,6.549-16.097,15.194-17.353l61.334-9.356c10.308-1.463,19.256-7.845,23.99-17.113l31.267-61.974
		c2.719-5.294,4.142-11.163,4.158-17.113l0,0c0-8.213-6.661-14.874-14.874-14.874l0,0H488.237z"/>
</g>
<g>
	<path style="fill:#2D4961;" d="M1047.924,351.743c11.331-9.116,17.92-22.878,17.912-37.424v-57.656
		c0-17.665-14.322-31.986-31.986-31.986H809.944c-17.665,0-31.987,14.322-31.987,31.986v57.656
		c-0.008,14.546,6.581,28.308,17.912,37.424l110.034,88.443v18.312v0.48l-34.865,74.209l-77.567,11.835
		c-9.836,1.407-16.673,10.523-15.266,20.359c0.536,3.742,2.239,7.229,4.87,9.948l56.616,58.055l-13.754,82.205
		c-1.591,9.812,5.062,19.056,14.874,20.647c3.982,0.648,8.069-0.064,11.595-2.015l69.491-38.224l69.171,38.224
		c8.58,5.006,19.6,2.103,24.606-6.477c2.135-3.67,2.911-7.973,2.183-12.155l-13.754-82.205l56.616-58.055
		c6.917-7.133,6.749-18.52-0.384-25.445c-2.671-2.591-6.085-4.294-9.772-4.862l-77.567-11.835l-35.105-74.289v-0.48v-18.232
		L1047.924,351.743z"/>
	<path style="fill:#123247;" d="M1049.843,272.657v46.061c-0.016,7.285-3.343,14.17-9.036,18.712l-86.923,69.651
		c-10.092,8.029-15.977,20.215-15.993,33.106l0,0l110.034-88.443c11.331-9.116,17.921-22.878,17.912-37.424v-57.656
		C1057.008,256.663,1049.843,263.82,1049.843,272.657z"/>
	<path style="fill:#44637F;" d="M809.944,224.677c-17.665,0-31.987,14.322-31.987,31.986v55.976l0,0
		c8.836,0,15.993-7.157,15.993-15.993v-39.983c0-8.836,7.157-15.993,15.993-15.993h207.912c8.836,0,15.993-7.157,15.993-15.993
		H809.944z"/>
	<path style="fill:#123247;" d="M1004.102,633.384l56.616-58.055c4.718-4.838,6.317-11.915,4.158-18.312
		c-0.36-0.888-0.784-1.743-1.279-2.559c-4.062,0.4-7.909,2.015-11.035,4.638l-45.341,46.46c-7.085,7.277-10.292,17.489-8.636,27.508
		l10.795,66.212c1.591,9.812-5.062,19.056-14.874,20.647c-3.982,0.648-8.069-0.064-11.595-2.015l-53.657-29.428
		c-9.732-5.47-21.615-5.47-31.347,0l-53.258,29.588c-0.736,0.36-1.519,0.624-2.319,0.8c-5.614,1.583-8.876,7.421-7.285,13.026
		c0.232,0.808,0.552,1.591,0.968,2.327l0,0c5.246,2.799,11.547,2.799,16.793,0l69.091-38.224l69.171,38.224
		c8.58,5.006,19.6,2.103,24.606-6.477c2.135-3.67,2.911-7.973,2.183-12.155L1004.102,633.384z"/>
	<polygon style="fill:#FF7878;" points="921.897,659.453 862.482,692.32 873.837,622.589 824.978,572.53 892.469,562.214 
		921.897,499.521 951.325,562.214 1018.816,572.53 969.957,622.589 981.312,692.32 	"/>
	<polygon style="fill:#FFA9A9;" points="901.426,575.249 929.414,515.594 921.897,499.521 892.469,562.214 824.978,572.53 
		837.213,585.085 	"/>
	<polygon style="fill:#EF5252;" points="1018.816,572.53 1000.984,569.811 961.001,610.834 972.356,680.485 912.941,647.698 
		865.521,673.847 862.482,692.32 921.897,659.453 981.312,692.32 969.957,622.589 	"/>
	<path style="fill:#3689C9;" d="M815.942,326.794c-3.79-3.031-5.997-7.621-5.997-12.475v-57.656h223.906v57.656
		c0,4.854-2.207,9.444-5.998,12.475l-105.955,85.164L815.942,326.794z"/>
	<g>
		<polygon style="fill:#E2E5E7;" points="993.867,354.142 993.867,272.657 961.88,272.657 961.88,379.811 		"/>
		<polygon style="fill:#E2E5E7;" points="881.914,379.811 881.914,272.657 849.927,272.657 849.927,354.142 		"/>
		<polygon style="fill:#E2E5E7;" points="905.904,399.083 921.897,411.958 937.89,399.083 937.89,272.657 905.904,272.657 		"/>
	</g>
	<rect x="809.92" y="256.663" style="fill:#4C9FD7;" width="223.906" height="15.993"/>
	<g>
		<rect x="849.903" y="256.663" style="fill:#F1F2F2;" width="31.987" height="15.993"/>
		<rect x="905.88" y="256.663" style="fill:#F1F2F2;" width="31.987" height="15.993"/>
		<rect x="961.856" y="256.663" style="fill:#F1F2F2;" width="31.987" height="15.993"/>
	</g>
	<path style="fill:#44637F;" d="M905.904,440.586v17.912v0.48l-34.865,74.209l-77.567,11.835
		c-9.836,1.407-16.673,10.524-15.266,20.359c0.536,3.742,2.239,7.229,4.87,9.948l2.879,3.039
		c0.104-8.732,6.549-16.097,15.194-17.353l61.334-9.356c10.308-1.463,19.256-7.845,23.99-17.113l31.267-61.974
		c2.719-5.294,4.142-11.163,4.158-17.113l0,0c0-8.213-6.661-14.874-14.874-14.874l0,0H905.904z"/>
</g>
<g>
	<polygon style="fill:none;stroke:#AEBBCE;stroke-width:9;stroke-miterlimit:10;" points="-470.227,433.893 -504.221,427.024 
		-481.275,401.019 	"/>
	<g>
		
			<line style="fill:none;stroke:#AEDFF8;stroke-width:9;stroke-miterlimit:10;" x1="-673.124" y1="617.874" x2="-655.408" y2="617.874"/>
		
			<line style="fill:none;stroke:#AEDFF8;stroke-width:9;stroke-miterlimit:10;" x1="-639.715" y1="617.874" x2="-621.998" y2="617.874"/>
		
			<line style="fill:none;stroke:#AEDFF8;stroke-width:9;stroke-miterlimit:10;" x1="-647.561" y1="592.311" x2="-647.561" y2="610.028"/>
		
			<line style="fill:none;stroke:#AEDFF8;stroke-width:9;stroke-miterlimit:10;" x1="-647.561" y1="625.721" x2="-647.561" y2="643.438"/>
	</g>
	<g>
		
			<line style="fill:none;stroke:#AEDFF8;stroke-width:9;stroke-miterlimit:10;" x1="334.876" y1="674.874" x2="352.592" y2="674.874"/>
		
			<line style="fill:none;stroke:#AEDFF8;stroke-width:9;stroke-miterlimit:10;" x1="368.285" y1="674.874" x2="386.002" y2="674.874"/>
		
			<line style="fill:none;stroke:#AEDFF8;stroke-width:9;stroke-miterlimit:10;" x1="360.439" y1="649.311" x2="360.439" y2="667.028"/>
		
			<line style="fill:none;stroke:#AEDFF8;stroke-width:9;stroke-miterlimit:10;" x1="360.439" y1="682.721" x2="360.439" y2="700.438"/>
	</g>
	<g>
		
			<line style="fill:none;stroke:#C8E09B;stroke-width:7;stroke-miterlimit:10;" x1="-1204" y1="182.654" x2="-1185.527" y2="182.654"/>
		
			<line style="fill:none;stroke:#C8E09B;stroke-width:7;stroke-miterlimit:10;" x1="-1169.165" y1="182.654" x2="-1150.692" y2="182.654"/>
		
			<line style="fill:none;stroke:#C8E09B;stroke-width:7;stroke-miterlimit:10;" x1="-1177.346" y1="156" x2="-1177.346" y2="174.473"/>
		
			<line style="fill:none;stroke:#C8E09B;stroke-width:7;stroke-miterlimit:10;" x1="-1177.346" y1="190.835" x2="-1177.346" y2="209.308"/>
	</g>
	<g>
		
			<line style="fill:none;stroke:#C792C1;stroke-width:9;stroke-miterlimit:10;" x1="-1151.647" y1="704.056" x2="-1137.066" y2="704.056"/>
		
			<line style="fill:none;stroke:#C792C1;stroke-width:9;stroke-miterlimit:10;" x1="-1124.151" y1="704.056" x2="-1109.569" y2="704.056"/>
		
			<line style="fill:none;stroke:#C792C1;stroke-width:9;stroke-miterlimit:10;" x1="-1130.608" y1="683.017" x2="-1130.608" y2="697.598"/>
		
			<line style="fill:none;stroke:#C792C1;stroke-width:9;stroke-miterlimit:10;" x1="-1130.608" y1="710.513" x2="-1130.608" y2="725.094"/>
	</g>
	
		<circle style="opacity:0.46;fill:none;stroke:#FDB913;stroke-width:9;stroke-miterlimit:10;" cx="-589.831" cy="217.442" r="17.193"/>
	
		<circle style="opacity:0.46;fill:none;stroke:#84C553;stroke-width:9;stroke-miterlimit:10;" cx="1070.169" cy="472.442" r="17.193"/>
	<path style="fill:none;stroke:#F58B74;stroke-width:14;stroke-miterlimit:10;" d="M-1121.457,595.187h-31.219
		c-1.499,0-2.715-1.215-2.715-2.715l0,0c0-1.499,1.215-2.715,2.715-2.715h31.219c1.499,0,2.715,1.215,2.715,2.715l0,0
		C-1118.742,593.972-1119.958,595.187-1121.457,595.187z"/>
	<path style="fill:none;stroke:#C6E09B;stroke-width:14;stroke-miterlimit:10;" d="M-620.641,736.19h-31.219
		c-1.499,0-2.715-1.215-2.715-2.715l0,0c0-1.499,1.215-2.715,2.715-2.715h31.219c1.499,0,2.715,1.215,2.715,2.715l0,0
		C-617.926,734.974-619.141,736.19-620.641,736.19z"/>
	
		<circle style="opacity:0.46;fill:none;stroke:#FDB913;stroke-width:9;stroke-miterlimit:10;" cx="-68.831" cy="525.442" r="17.193"/>
	
		<circle style="opacity:0.46;fill:none;stroke:#FDB913;stroke-width:9;stroke-miterlimit:10;" cx="410.169" cy="196.442" r="17.193"/>
	<g>
		
			<line style="fill:#AFD9A7;stroke:#80B6E2;stroke-width:9;stroke-miterlimit:10;" x1="-83.647" y1="214.056" x2="-69.066" y2="214.056"/>
		
			<line style="fill:#AFD9A7;stroke:#80B6E2;stroke-width:9;stroke-miterlimit:10;" x1="-56.151" y1="214.056" x2="-41.57" y2="214.056"/>
		
			<line style="fill:#AFD9A7;stroke:#80B6E2;stroke-width:9;stroke-miterlimit:10;" x1="-62.608" y1="193.017" x2="-62.608" y2="207.598"/>
		
			<line style="fill:#AFD9A7;stroke:#80B6E2;stroke-width:9;stroke-miterlimit:10;" x1="-62.608" y1="220.513" x2="-62.608" y2="235.094"/>
	</g>
	<path style="fill:none;stroke:#D3E387;stroke-width:14;stroke-miterlimit:10;" d="M265.543,423.187h-31.219
		c-1.499,0-2.715-1.215-2.715-2.715l0,0c0-1.499,1.215-2.715,2.715-2.715h31.219c1.499,0,2.715,1.215,2.715,2.715l0,0
		C268.258,421.972,267.042,423.187,265.543,423.187z"/>
	<path style="fill:none;stroke:#F8F077;stroke-width:14;stroke-miterlimit:10;" d="M1125.543,182.187h-31.219
		c-1.499,0-2.715-1.215-2.715-2.715v0c0-1.499,1.215-2.715,2.715-2.715h31.219c1.499,0,2.715,1.215,2.715,2.715v0
		C1128.258,180.972,1127.042,182.187,1125.543,182.187z"/>
	<g>
		
			<line style="fill:none;stroke:#AEDFF8;stroke-width:9;stroke-miterlimit:10;" x1="765.876" y1="394.874" x2="783.592" y2="394.874"/>
		
			<line style="fill:none;stroke:#AEDFF8;stroke-width:9;stroke-miterlimit:10;" x1="799.285" y1="394.874" x2="817.002" y2="394.874"/>
		
			<line style="fill:none;stroke:#AEDFF8;stroke-width:9;stroke-miterlimit:10;" x1="791.439" y1="369.311" x2="791.439" y2="387.028"/>
		
			<line style="fill:none;stroke:#AEDFF8;stroke-width:9;stroke-miterlimit:10;" x1="791.439" y1="402.721" x2="791.439" y2="420.438"/>
	</g>
</g>
</svg>
